{
  "classifierPath" : "meta::pure::metamodel::type::Class",
  "content" : {
    "_type" : "class",
    "constraints" : [ {
      "functionDefinition" : {
        "_type" : "lambda",
        "body" : [ {
          "_type" : "func",
          "function" : "forAll",
          "parameters" : [ {
            "_type" : "property",
            "parameters" : [ {
              "_type" : "var",
              "name" : "this",
              "sourceInformation" : {
                "endColumn" : 18,
                "endLine" : 5661,
                "sourceId" : "",
                "startColumn" : 14,
                "startLine" : 5661
              }
            } ],
            "property" : "accountNameScheme",
            "sourceInformation" : {
              "endColumn" : 36,
              "endLine" : 5661,
              "sourceId" : "",
              "startColumn" : 20,
              "startLine" : 5661
            }
          }, {
            "_type" : "lambda",
            "body" : [ {
              "_type" : "func",
              "function" : "greaterThanEqual",
              "parameters" : [ {
                "_type" : "func",
                "function" : "length",
                "parameters" : [ {
                  "_type" : "var",
                  "name" : "x",
                  "sourceInformation" : {
                    "endColumn" : 60,
                    "endLine" : 5661,
                    "sourceId" : "",
                    "startColumn" : 59,
                    "startLine" : 5661
                  }
                } ],
                "sourceInformation" : {
                  "endColumn" : 68,
                  "endLine" : 5661,
                  "sourceId" : "",
                  "startColumn" : 63,
                  "startLine" : 5661
                }
              }, {
                "_type" : "integer",
                "multiplicity" : {
                  "lowerBound" : 1,
                  "upperBound" : 1
                },
                "sourceInformation" : {
                  "endColumn" : 75,
                  "endLine" : 5661,
                  "sourceId" : "",
                  "startColumn" : 75,
                  "startLine" : 5661
                },
                "values" : [ 1 ]
              } ],
              "sourceInformation" : {
                "endColumn" : 75,
                "endLine" : 5661,
                "sourceId" : "",
                "startColumn" : 72,
                "startLine" : 5661
              }
            } ],
            "parameters" : [ {
              "_type" : "var",
              "class" : "String",
              "multiplicity" : {
                "lowerBound" : 1,
                "upperBound" : 1
              },
              "name" : "x",
              "sourceInformation" : {
                "endColumn" : 54,
                "endLine" : 5661,
                "sourceId" : "",
                "startColumn" : 49,
                "startLine" : 5661
              }
            } ],
            "sourceInformation" : {
              "endColumn" : 75,
              "endLine" : 5661,
              "sourceId" : "",
              "startColumn" : 58,
              "startLine" : 5661
            }
          } ],
          "sourceInformation" : {
            "endColumn" : 44,
            "endLine" : 5661,
            "sourceId" : "",
            "startColumn" : 39,
            "startLine" : 5661
          }
        } ],
        "parameters" : [ ]
      },
      "name" : "c1_length"
    }, {
      "functionDefinition" : {
        "_type" : "lambda",
        "body" : [ {
          "_type" : "func",
          "function" : "lessThanEqual",
          "parameters" : [ {
            "_type" : "func",
            "function" : "length",
            "parameters" : [ {
              "_type" : "property",
              "parameters" : [ {
                "_type" : "var",
                "name" : "this",
                "sourceInformation" : {
                  "endColumn" : 18,
                  "endLine" : 5662,
                  "sourceId" : "",
                  "startColumn" : 14,
                  "startLine" : 5662
                }
              } ],
              "property" : "value",
              "sourceInformation" : {
                "endColumn" : 24,
                "endLine" : 5662,
                "sourceId" : "",
                "startColumn" : 20,
                "startLine" : 5662
              }
            } ],
            "sourceInformation" : {
              "endColumn" : 32,
              "endLine" : 5662,
              "sourceId" : "",
              "startColumn" : 27,
              "startLine" : 5662
            }
          }, {
            "_type" : "integer",
            "multiplicity" : {
              "lowerBound" : 1,
              "upperBound" : 1
            },
            "sourceInformation" : {
              "endColumn" : 41,
              "endLine" : 5662,
              "sourceId" : "",
              "startColumn" : 39,
              "startLine" : 5662
            },
            "values" : [ 255 ]
          } ],
          "sourceInformation" : {
            "endColumn" : 41,
            "endLine" : 5662,
            "sourceId" : "",
            "startColumn" : 36,
            "startLine" : 5662
          }
        } ],
        "parameters" : [ ]
      },
      "name" : "c2_length"
    } ],
    "name" : "AccountName",
    "package" : "FpML::model",
    "properties" : [ {
      "multiplicity" : {
        "lowerBound" : 0,
        "upperBound" : 1
      },
      "name" : "accountNameScheme",
      "taggedValues" : [ {
        "tag" : {
          "profile" : "meta::pure::profiles::doc",
          "value" : "doc"
        },
        "value" : "The identifier scheme used with this accountName. A unique URI to determine the source of the account name."
      } ],
      "type" : "String"
    }, {
      "multiplicity" : {
        "lowerBound" : 1,
        "upperBound" : 1
      },
      "name" : "value",
      "type" : "String"
    } ],
    "taggedValues" : [ {
      "tag" : {
        "profile" : "meta::pure::profiles::doc",
        "value" : "doc"
      },
      "value" : "The data type used for the name of the account."
    } ]
  }
}