{
  "classifierPath" : "meta::pure::metamodel::type::Class",
  "content" : {
    "_type" : "class",
    "constraints" : [ {
      "functionDefinition" : {
        "_type" : "lambda",
        "body" : [ {
          "_type" : "func",
          "function" : "or",
          "parameters" : [ {
            "_type" : "func",
            "function" : "and",
            "parameters" : [ {
              "_type" : "func",
              "function" : "isNotEmpty",
              "parameters" : [ {
                "_type" : "property",
                "parameters" : [ {
                  "_type" : "var",
                  "name" : "this",
                  "sourceInformation" : {
                    "endColumn" : 19,
                    "endLine" : 5762,
                    "sourceId" : "",
                    "startColumn" : 15,
                    "startLine" : 5762
                  }
                } ],
                "property" : "adjustableDates",
                "sourceInformation" : {
                  "endColumn" : 35,
                  "endLine" : 5762,
                  "sourceId" : "",
                  "startColumn" : 21,
                  "startLine" : 5762
                }
              } ],
              "sourceInformation" : {
                "endColumn" : 47,
                "endLine" : 5762,
                "sourceId" : "",
                "startColumn" : 38,
                "startLine" : 5762
              }
            }, {
              "_type" : "func",
              "function" : "isEmpty",
              "parameters" : [ {
                "_type" : "property",
                "parameters" : [ {
                  "_type" : "var",
                  "name" : "this",
                  "sourceInformation" : {
                    "endColumn" : 58,
                    "endLine" : 5762,
                    "sourceId" : "",
                    "startColumn" : 54,
                    "startLine" : 5762
                  }
                } ],
                "property" : "relativeDate",
                "sourceInformation" : {
                  "endColumn" : 71,
                  "endLine" : 5762,
                  "sourceId" : "",
                  "startColumn" : 60,
                  "startLine" : 5762
                }
              } ],
              "sourceInformation" : {
                "endColumn" : 80,
                "endLine" : 5762,
                "sourceId" : "",
                "startColumn" : 74,
                "startLine" : 5762
              }
            } ],
            "sourceInformation" : {
              "endColumn" : 52,
              "endLine" : 5762,
              "sourceId" : "",
              "startColumn" : 51,
              "startLine" : 5762
            }
          }, {
            "_type" : "func",
            "function" : "and",
            "parameters" : [ {
              "_type" : "func",
              "function" : "isEmpty",
              "parameters" : [ {
                "_type" : "property",
                "parameters" : [ {
                  "_type" : "var",
                  "name" : "this",
                  "sourceInformation" : {
                    "endColumn" : 93,
                    "endLine" : 5762,
                    "sourceId" : "",
                    "startColumn" : 89,
                    "startLine" : 5762
                  }
                } ],
                "property" : "adjustableDates",
                "sourceInformation" : {
                  "endColumn" : 109,
                  "endLine" : 5762,
                  "sourceId" : "",
                  "startColumn" : 95,
                  "startLine" : 5762
                }
              } ],
              "sourceInformation" : {
                "endColumn" : 118,
                "endLine" : 5762,
                "sourceId" : "",
                "startColumn" : 112,
                "startLine" : 5762
              }
            }, {
              "_type" : "func",
              "function" : "isNotEmpty",
              "parameters" : [ {
                "_type" : "property",
                "parameters" : [ {
                  "_type" : "var",
                  "name" : "this",
                  "sourceInformation" : {
                    "endColumn" : 129,
                    "endLine" : 5762,
                    "sourceId" : "",
                    "startColumn" : 125,
                    "startLine" : 5762
                  }
                } ],
                "property" : "relativeDate",
                "sourceInformation" : {
                  "endColumn" : 142,
                  "endLine" : 5762,
                  "sourceId" : "",
                  "startColumn" : 131,
                  "startLine" : 5762
                }
              } ],
              "sourceInformation" : {
                "endColumn" : 154,
                "endLine" : 5762,
                "sourceId" : "",
                "startColumn" : 145,
                "startLine" : 5762
              }
            } ],
            "sourceInformation" : {
              "endColumn" : 123,
              "endLine" : 5762,
              "sourceId" : "",
              "startColumn" : 122,
              "startLine" : 5762
            }
          } ],
          "sourceInformation" : {
            "endColumn" : 86,
            "endLine" : 5762,
            "sourceId" : "",
            "startColumn" : 85,
            "startLine" : 5762
          }
        } ],
        "parameters" : [ ]
      },
      "name" : "c1_choice"
    } ],
    "name" : "AdjustableDatesOrRelativeDateOffset",
    "package" : "FpML::model",
    "properties" : [ {
      "multiplicity" : {
        "lowerBound" : 0,
        "upperBound" : 1
      },
      "name" : "adjustableDates",
      "taggedValues" : [ {
        "tag" : {
          "profile" : "meta::pure::profiles::doc",
          "value" : "doc"
        },
        "value" : "A series of adjustable dates"
      } ],
      "type" : "FpML::model::AdjustableDates"
    }, {
      "multiplicity" : {
        "lowerBound" : 0,
        "upperBound" : 1
      },
      "name" : "relativeDate",
      "taggedValues" : [ {
        "tag" : {
          "profile" : "meta::pure::profiles::doc",
          "value" : "doc"
        },
        "value" : "A series of dates specified as a repeating sequence from a base date."
      } ],
      "type" : "FpML::model::RelativeDateOffset"
    } ],
    "taggedValues" : [ {
      "tag" : {
        "profile" : "meta::pure::profiles::doc",
        "value" : "doc"
      },
      "value" : "A type for defining a series of dates, either as a list of adjustable dates, or a as a repeating sequence from a base date"
    } ]
  }
}