{
  "classifierPath" : "meta::pure::metamodel::type::Enumeration",
  "content" : {
    "_type" : "Enumeration",
    "name" : "AveragingMethodEnum",
    "package" : "FpML::model",
    "taggedValues" : [ {
      "tag" : {
        "profile" : "meta::pure::profiles::doc",
        "value" : "doc"
      },
      "value" : "The method of calculation to be used when averaging rates. Per ISDA 2000 Definitions, Section 6.2. Certain Definitions Relating to Floating Amounts. The method of calculation to be used when averaging rates. Per ISDA 2000 Definitions, Section 6.2. Certain Definitions Relating to Floating Amounts. - For use with pre-trade Credit Limit Check messages."
    } ],
    "values" : [ {
      "value" : "Unweighted"
    }, {
      "value" : "Weighted"
    } ]
  }
}