{
  "classifierPath" : "meta::pure::metamodel::type::Class",
  "content" : {
    "_type" : "class",
    "name" : "CalculationPeriodFrequency",
    "package" : "FpML::model",
    "properties" : [ {
      "multiplicity" : {
        "lowerBound" : 0,
        "upperBound" : 1
      },
      "name" : "rollConvention",
      "taggedValues" : [ {
        "tag" : {
          "profile" : "meta::pure::profiles::doc",
          "value" : "doc"
        },
        "value" : "Used in conjunction with a frequency and the regular period start date of a calculation period, determines each calculation period end date within the regular part of a calculation period schedule."
      } ],
      "type" : "FpML::model::RollConventionEnum"
    } ],
    "superTypes" : [ "FpML::model::Frequency" ],
    "taggedValues" : [ {
      "tag" : {
        "profile" : "meta::pure::profiles::doc",
        "value" : "doc"
      },
      "value" : "A type defining the frequency at which calculation period end dates occur within the regular part of the calculation period schedule and thier roll date convention. In case the calculation frequency is of value T (term), the period is defined by the swapswapStreamcalculationPerioDateseffectiveDate and the swapswapStreamcalculationPerioDates\terminationDate."
    } ]
  }
}