{
  "classifierPath" : "meta::pure::metamodel::type::Enumeration",
  "content" : {
    "_type" : "Enumeration",
    "name" : "CollateralValueAllocationEnum",
    "package" : "FpML::model",
    "taggedValues" : [ {
      "tag" : {
        "profile" : "meta::pure::profiles::doc",
        "value" : "doc"
      },
      "value" : "Denotes the method of collateral value allocation"
    } ],
    "values" : [ {
      "value" : "Buffer"
    }, {
      "value" : "Full"
    }, {
      "value" : "ExcessOverMargin"
    }, {
      "value" : "Margin"
    } ]
  }
}