{
  "classifierPath" : "meta::pure::metamodel::type::Enumeration",
  "content" : {
    "_type" : "Enumeration",
    "name" : "ConditionsPrecedentMetEnum",
    "package" : "FpML::model",
    "taggedValues" : [ {
      "tag" : {
        "profile" : "meta::pure::profiles::doc",
        "value" : "doc"
      },
      "value" : "Defines whether conditions precedent have been met in a given syndicated loan deal."
    } ],
    "values" : [ {
      "value" : "No"
    }, {
      "value" : "Waived"
    }, {
      "value" : "Yes"
    } ]
  }
}