{
  "classifierPath" : "meta::pure::metamodel::type::Class",
  "content" : {
    "_type" : "class",
    "constraints" : [ {
      "functionDefinition" : {
        "_type" : "lambda",
        "body" : [ {
          "_type" : "func",
          "function" : "forAll",
          "parameters" : [ {
            "_type" : "property",
            "parameters" : [ {
              "_type" : "var",
              "name" : "this",
              "sourceInformation" : {
                "endColumn" : 18,
                "endLine" : 6518,
                "sourceId" : "",
                "startColumn" : 14,
                "startLine" : 6518
              }
            } ],
            "property" : "countryScheme",
            "sourceInformation" : {
              "endColumn" : 32,
              "endLine" : 6518,
              "sourceId" : "",
              "startColumn" : 20,
              "startLine" : 6518
            }
          }, {
            "_type" : "lambda",
            "body" : [ {
              "_type" : "func",
              "function" : "greaterThanEqual",
              "parameters" : [ {
                "_type" : "func",
                "function" : "length",
                "parameters" : [ {
                  "_type" : "var",
                  "name" : "x",
                  "sourceInformation" : {
                    "endColumn" : 56,
                    "endLine" : 6518,
                    "sourceId" : "",
                    "startColumn" : 55,
                    "startLine" : 6518
                  }
                } ],
                "sourceInformation" : {
                  "endColumn" : 64,
                  "endLine" : 6518,
                  "sourceId" : "",
                  "startColumn" : 59,
                  "startLine" : 6518
                }
              }, {
                "_type" : "integer",
                "multiplicity" : {
                  "lowerBound" : 1,
                  "upperBound" : 1
                },
                "sourceInformation" : {
                  "endColumn" : 71,
                  "endLine" : 6518,
                  "sourceId" : "",
                  "startColumn" : 71,
                  "startLine" : 6518
                },
                "values" : [ 1 ]
              } ],
              "sourceInformation" : {
                "endColumn" : 71,
                "endLine" : 6518,
                "sourceId" : "",
                "startColumn" : 68,
                "startLine" : 6518
              }
            } ],
            "parameters" : [ {
              "_type" : "var",
              "class" : "String",
              "multiplicity" : {
                "lowerBound" : 1,
                "upperBound" : 1
              },
              "name" : "x",
              "sourceInformation" : {
                "endColumn" : 50,
                "endLine" : 6518,
                "sourceId" : "",
                "startColumn" : 45,
                "startLine" : 6518
              }
            } ],
            "sourceInformation" : {
              "endColumn" : 71,
              "endLine" : 6518,
              "sourceId" : "",
              "startColumn" : 54,
              "startLine" : 6518
            }
          } ],
          "sourceInformation" : {
            "endColumn" : 40,
            "endLine" : 6518,
            "sourceId" : "",
            "startColumn" : 35,
            "startLine" : 6518
          }
        } ],
        "parameters" : [ ]
      },
      "name" : "c1_length"
    }, {
      "functionDefinition" : {
        "_type" : "lambda",
        "body" : [ {
          "_type" : "func",
          "function" : "greaterThanEqual",
          "parameters" : [ {
            "_type" : "func",
            "function" : "length",
            "parameters" : [ {
              "_type" : "property",
              "parameters" : [ {
                "_type" : "var",
                "name" : "this",
                "sourceInformation" : {
                  "endColumn" : 18,
                  "endLine" : 6519,
                  "sourceId" : "",
                  "startColumn" : 14,
                  "startLine" : 6519
                }
              } ],
              "property" : "value",
              "sourceInformation" : {
                "endColumn" : 24,
                "endLine" : 6519,
                "sourceId" : "",
                "startColumn" : 20,
                "startLine" : 6519
              }
            } ],
            "sourceInformation" : {
              "endColumn" : 32,
              "endLine" : 6519,
              "sourceId" : "",
              "startColumn" : 27,
              "startLine" : 6519
            }
          }, {
            "_type" : "integer",
            "multiplicity" : {
              "lowerBound" : 1,
              "upperBound" : 1
            },
            "sourceInformation" : {
              "endColumn" : 39,
              "endLine" : 6519,
              "sourceId" : "",
              "startColumn" : 39,
              "startLine" : 6519
            },
            "values" : [ 0 ]
          } ],
          "sourceInformation" : {
            "endColumn" : 39,
            "endLine" : 6519,
            "sourceId" : "",
            "startColumn" : 36,
            "startLine" : 6519
          }
        } ],
        "parameters" : [ ]
      },
      "name" : "c2_length"
    } ],
    "name" : "CountryCode",
    "package" : "FpML::model",
    "properties" : [ {
      "multiplicity" : {
        "lowerBound" : 0,
        "upperBound" : 1
      },
      "name" : "countryScheme",
      "type" : "String"
    }, {
      "multiplicity" : {
        "lowerBound" : 1,
        "upperBound" : 1
      },
      "name" : "value",
      "type" : "String"
    } ],
    "taggedValues" : [ {
      "tag" : {
        "profile" : "meta::pure::profiles::doc",
        "value" : "doc"
      },
      "value" : "The code representation of a country or an area of special sovereignty. By default it is a valid 2 character country code as defined by the ISO standard 3166-1 alpha-2 - Codes for representation of countries http://www.niso.org/standards/resources/3166.html."
    } ]
  }
}