{
  "classifierPath" : "meta::pure::metamodel::type::Class",
  "content" : {
    "_type" : "class",
    "constraints" : [ {
      "functionDefinition" : {
        "_type" : "lambda",
        "body" : [ {
          "_type" : "func",
          "function" : "forAll",
          "parameters" : [ {
            "_type" : "property",
            "parameters" : [ {
              "_type" : "var",
              "name" : "this",
              "sourceInformation" : {
                "endColumn" : 18,
                "endLine" : 6700,
                "sourceId" : "",
                "startColumn" : 14,
                "startLine" : 6700
              }
            } ],
            "property" : "excluded",
            "sourceInformation" : {
              "endColumn" : 27,
              "endLine" : 6700,
              "sourceId" : "",
              "startColumn" : 20,
              "startLine" : 6700
            }
          }, {
            "_type" : "lambda",
            "body" : [ {
              "_type" : "func",
              "function" : "greaterThanEqual",
              "parameters" : [ {
                "_type" : "func",
                "function" : "length",
                "parameters" : [ {
                  "_type" : "var",
                  "name" : "x",
                  "sourceInformation" : {
                    "endColumn" : 51,
                    "endLine" : 6700,
                    "sourceId" : "",
                    "startColumn" : 50,
                    "startLine" : 6700
                  }
                } ],
                "sourceInformation" : {
                  "endColumn" : 59,
                  "endLine" : 6700,
                  "sourceId" : "",
                  "startColumn" : 54,
                  "startLine" : 6700
                }
              }, {
                "_type" : "integer",
                "multiplicity" : {
                  "lowerBound" : 1,
                  "upperBound" : 1
                },
                "sourceInformation" : {
                  "endColumn" : 66,
                  "endLine" : 6700,
                  "sourceId" : "",
                  "startColumn" : 66,
                  "startLine" : 6700
                },
                "values" : [ 1 ]
              } ],
              "sourceInformation" : {
                "endColumn" : 66,
                "endLine" : 6700,
                "sourceId" : "",
                "startColumn" : 63,
                "startLine" : 6700
              }
            } ],
            "parameters" : [ {
              "_type" : "var",
              "class" : "String",
              "multiplicity" : {
                "lowerBound" : 1,
                "upperBound" : 1
              },
              "name" : "x",
              "sourceInformation" : {
                "endColumn" : 45,
                "endLine" : 6700,
                "sourceId" : "",
                "startColumn" : 40,
                "startLine" : 6700
              }
            } ],
            "sourceInformation" : {
              "endColumn" : 66,
              "endLine" : 6700,
              "sourceId" : "",
              "startColumn" : 49,
              "startLine" : 6700
            }
          } ],
          "sourceInformation" : {
            "endColumn" : 35,
            "endLine" : 6700,
            "sourceId" : "",
            "startColumn" : 30,
            "startLine" : 6700
          }
        } ],
        "parameters" : [ ]
      },
      "name" : "c1_length"
    }, {
      "functionDefinition" : {
        "_type" : "lambda",
        "body" : [ {
          "_type" : "func",
          "function" : "forAll",
          "parameters" : [ {
            "_type" : "property",
            "parameters" : [ {
              "_type" : "var",
              "name" : "this",
              "sourceInformation" : {
                "endColumn" : 18,
                "endLine" : 6701,
                "sourceId" : "",
                "startColumn" : 14,
                "startLine" : 6701
              }
            } ],
            "property" : "othReferenceEntityObligations",
            "sourceInformation" : {
              "endColumn" : 48,
              "endLine" : 6701,
              "sourceId" : "",
              "startColumn" : 20,
              "startLine" : 6701
            }
          }, {
            "_type" : "lambda",
            "body" : [ {
              "_type" : "func",
              "function" : "greaterThanEqual",
              "parameters" : [ {
                "_type" : "func",
                "function" : "length",
                "parameters" : [ {
                  "_type" : "var",
                  "name" : "x",
                  "sourceInformation" : {
                    "endColumn" : 72,
                    "endLine" : 6701,
                    "sourceId" : "",
                    "startColumn" : 71,
                    "startLine" : 6701
                  }
                } ],
                "sourceInformation" : {
                  "endColumn" : 80,
                  "endLine" : 6701,
                  "sourceId" : "",
                  "startColumn" : 75,
                  "startLine" : 6701
                }
              }, {
                "_type" : "integer",
                "multiplicity" : {
                  "lowerBound" : 1,
                  "upperBound" : 1
                },
                "sourceInformation" : {
                  "endColumn" : 87,
                  "endLine" : 6701,
                  "sourceId" : "",
                  "startColumn" : 87,
                  "startLine" : 6701
                },
                "values" : [ 1 ]
              } ],
              "sourceInformation" : {
                "endColumn" : 87,
                "endLine" : 6701,
                "sourceId" : "",
                "startColumn" : 84,
                "startLine" : 6701
              }
            } ],
            "parameters" : [ {
              "_type" : "var",
              "class" : "String",
              "multiplicity" : {
                "lowerBound" : 1,
                "upperBound" : 1
              },
              "name" : "x",
              "sourceInformation" : {
                "endColumn" : 66,
                "endLine" : 6701,
                "sourceId" : "",
                "startColumn" : 61,
                "startLine" : 6701
              }
            } ],
            "sourceInformation" : {
              "endColumn" : 87,
              "endLine" : 6701,
              "sourceId" : "",
              "startColumn" : 70,
              "startLine" : 6701
            }
          } ],
          "sourceInformation" : {
            "endColumn" : 56,
            "endLine" : 6701,
            "sourceId" : "",
            "startColumn" : 51,
            "startLine" : 6701
          }
        } ],
        "parameters" : [ ]
      },
      "name" : "c2_length"
    }, {
      "functionDefinition" : {
        "_type" : "lambda",
        "body" : [ {
          "_type" : "func",
          "function" : "or",
          "parameters" : [ {
            "_type" : "func",
            "function" : "and",
            "parameters" : [ {
              "_type" : "func",
              "function" : "isNotEmpty",
              "parameters" : [ {
                "_type" : "property",
                "parameters" : [ {
                  "_type" : "var",
                  "name" : "this",
                  "sourceInformation" : {
                    "endColumn" : 19,
                    "endLine" : 6702,
                    "sourceId" : "",
                    "startColumn" : 15,
                    "startLine" : 6702
                  }
                } ],
                "property" : "fullFaithAndCreditObLiability",
                "sourceInformation" : {
                  "endColumn" : 49,
                  "endLine" : 6702,
                  "sourceId" : "",
                  "startColumn" : 21,
                  "startLine" : 6702
                }
              } ],
              "sourceInformation" : {
                "endColumn" : 61,
                "endLine" : 6702,
                "sourceId" : "",
                "startColumn" : 52,
                "startLine" : 6702
              }
            }, {
              "_type" : "func",
              "function" : "and",
              "parameters" : [ {
                "_type" : "func",
                "function" : "isEmpty",
                "parameters" : [ {
                  "_type" : "property",
                  "parameters" : [ {
                    "_type" : "var",
                    "name" : "this",
                    "sourceInformation" : {
                      "endColumn" : 73,
                      "endLine" : 6702,
                      "sourceId" : "",
                      "startColumn" : 69,
                      "startLine" : 6702
                    }
                  } ],
                  "property" : "generalFundObligationLiability",
                  "sourceInformation" : {
                    "endColumn" : 104,
                    "endLine" : 6702,
                    "sourceId" : "",
                    "startColumn" : 75,
                    "startLine" : 6702
                  }
                } ],
                "sourceInformation" : {
                  "endColumn" : 113,
                  "endLine" : 6702,
                  "sourceId" : "",
                  "startColumn" : 107,
                  "startLine" : 6702
                }
              }, {
                "_type" : "func",
                "function" : "isEmpty",
                "parameters" : [ {
                  "_type" : "property",
                  "parameters" : [ {
                    "_type" : "var",
                    "name" : "this",
                    "sourceInformation" : {
                      "endColumn" : 124,
                      "endLine" : 6702,
                      "sourceId" : "",
                      "startColumn" : 120,
                      "startLine" : 6702
                    }
                  } ],
                  "property" : "revenueObligationLiability",
                  "sourceInformation" : {
                    "endColumn" : 151,
                    "endLine" : 6702,
                    "sourceId" : "",
                    "startColumn" : 126,
                    "startLine" : 6702
                  }
                } ],
                "sourceInformation" : {
                  "endColumn" : 160,
                  "endLine" : 6702,
                  "sourceId" : "",
                  "startColumn" : 154,
                  "startLine" : 6702
                }
              } ],
              "sourceInformation" : {
                "endColumn" : 118,
                "endLine" : 6702,
                "sourceId" : "",
                "startColumn" : 117,
                "startLine" : 6702
              }
            } ],
            "sourceInformation" : {
              "endColumn" : 66,
              "endLine" : 6702,
              "sourceId" : "",
              "startColumn" : 65,
              "startLine" : 6702
            }
          }, {
            "_type" : "func",
            "function" : "or",
            "parameters" : [ {
              "_type" : "func",
              "function" : "and",
              "parameters" : [ {
                "_type" : "func",
                "function" : "isEmpty",
                "parameters" : [ {
                  "_type" : "property",
                  "parameters" : [ {
                    "_type" : "var",
                    "name" : "this",
                    "sourceInformation" : {
                      "endColumn" : 175,
                      "endLine" : 6702,
                      "sourceId" : "",
                      "startColumn" : 171,
                      "startLine" : 6702
                    }
                  } ],
                  "property" : "fullFaithAndCreditObLiability",
                  "sourceInformation" : {
                    "endColumn" : 205,
                    "endLine" : 6702,
                    "sourceId" : "",
                    "startColumn" : 177,
                    "startLine" : 6702
                  }
                } ],
                "sourceInformation" : {
                  "endColumn" : 214,
                  "endLine" : 6702,
                  "sourceId" : "",
                  "startColumn" : 208,
                  "startLine" : 6702
                }
              }, {
                "_type" : "func",
                "function" : "and",
                "parameters" : [ {
                  "_type" : "func",
                  "function" : "isNotEmpty",
                  "parameters" : [ {
                    "_type" : "property",
                    "parameters" : [ {
                      "_type" : "var",
                      "name" : "this",
                      "sourceInformation" : {
                        "endColumn" : 226,
                        "endLine" : 6702,
                        "sourceId" : "",
                        "startColumn" : 222,
                        "startLine" : 6702
                      }
                    } ],
                    "property" : "generalFundObligationLiability",
                    "sourceInformation" : {
                      "endColumn" : 257,
                      "endLine" : 6702,
                      "sourceId" : "",
                      "startColumn" : 228,
                      "startLine" : 6702
                    }
                  } ],
                  "sourceInformation" : {
                    "endColumn" : 269,
                    "endLine" : 6702,
                    "sourceId" : "",
                    "startColumn" : 260,
                    "startLine" : 6702
                  }
                }, {
                  "_type" : "func",
                  "function" : "isEmpty",
                  "parameters" : [ {
                    "_type" : "property",
                    "parameters" : [ {
                      "_type" : "var",
                      "name" : "this",
                      "sourceInformation" : {
                        "endColumn" : 280,
                        "endLine" : 6702,
                        "sourceId" : "",
                        "startColumn" : 276,
                        "startLine" : 6702
                      }
                    } ],
                    "property" : "revenueObligationLiability",
                    "sourceInformation" : {
                      "endColumn" : 307,
                      "endLine" : 6702,
                      "sourceId" : "",
                      "startColumn" : 282,
                      "startLine" : 6702
                    }
                  } ],
                  "sourceInformation" : {
                    "endColumn" : 316,
                    "endLine" : 6702,
                    "sourceId" : "",
                    "startColumn" : 310,
                    "startLine" : 6702
                  }
                } ],
                "sourceInformation" : {
                  "endColumn" : 274,
                  "endLine" : 6702,
                  "sourceId" : "",
                  "startColumn" : 273,
                  "startLine" : 6702
                }
              } ],
              "sourceInformation" : {
                "endColumn" : 219,
                "endLine" : 6702,
                "sourceId" : "",
                "startColumn" : 218,
                "startLine" : 6702
              }
            }, {
              "_type" : "func",
              "function" : "and",
              "parameters" : [ {
                "_type" : "func",
                "function" : "isEmpty",
                "parameters" : [ {
                  "_type" : "property",
                  "parameters" : [ {
                    "_type" : "var",
                    "name" : "this",
                    "sourceInformation" : {
                      "endColumn" : 330,
                      "endLine" : 6702,
                      "sourceId" : "",
                      "startColumn" : 326,
                      "startLine" : 6702
                    }
                  } ],
                  "property" : "fullFaithAndCreditObLiability",
                  "sourceInformation" : {
                    "endColumn" : 360,
                    "endLine" : 6702,
                    "sourceId" : "",
                    "startColumn" : 332,
                    "startLine" : 6702
                  }
                } ],
                "sourceInformation" : {
                  "endColumn" : 369,
                  "endLine" : 6702,
                  "sourceId" : "",
                  "startColumn" : 363,
                  "startLine" : 6702
                }
              }, {
                "_type" : "func",
                "function" : "and",
                "parameters" : [ {
                  "_type" : "func",
                  "function" : "isEmpty",
                  "parameters" : [ {
                    "_type" : "property",
                    "parameters" : [ {
                      "_type" : "var",
                      "name" : "this",
                      "sourceInformation" : {
                        "endColumn" : 381,
                        "endLine" : 6702,
                        "sourceId" : "",
                        "startColumn" : 377,
                        "startLine" : 6702
                      }
                    } ],
                    "property" : "generalFundObligationLiability",
                    "sourceInformation" : {
                      "endColumn" : 412,
                      "endLine" : 6702,
                      "sourceId" : "",
                      "startColumn" : 383,
                      "startLine" : 6702
                    }
                  } ],
                  "sourceInformation" : {
                    "endColumn" : 421,
                    "endLine" : 6702,
                    "sourceId" : "",
                    "startColumn" : 415,
                    "startLine" : 6702
                  }
                }, {
                  "_type" : "func",
                  "function" : "isNotEmpty",
                  "parameters" : [ {
                    "_type" : "property",
                    "parameters" : [ {
                      "_type" : "var",
                      "name" : "this",
                      "sourceInformation" : {
                        "endColumn" : 432,
                        "endLine" : 6702,
                        "sourceId" : "",
                        "startColumn" : 428,
                        "startLine" : 6702
                      }
                    } ],
                    "property" : "revenueObligationLiability",
                    "sourceInformation" : {
                      "endColumn" : 459,
                      "endLine" : 6702,
                      "sourceId" : "",
                      "startColumn" : 434,
                      "startLine" : 6702
                    }
                  } ],
                  "sourceInformation" : {
                    "endColumn" : 471,
                    "endLine" : 6702,
                    "sourceId" : "",
                    "startColumn" : 462,
                    "startLine" : 6702
                  }
                } ],
                "sourceInformation" : {
                  "endColumn" : 426,
                  "endLine" : 6702,
                  "sourceId" : "",
                  "startColumn" : 425,
                  "startLine" : 6702
                }
              } ],
              "sourceInformation" : {
                "endColumn" : 374,
                "endLine" : 6702,
                "sourceId" : "",
                "startColumn" : 373,
                "startLine" : 6702
              }
            } ],
            "sourceInformation" : {
              "endColumn" : 323,
              "endLine" : 6702,
              "sourceId" : "",
              "startColumn" : 322,
              "startLine" : 6702
            }
          } ],
          "sourceInformation" : {
            "endColumn" : 167,
            "endLine" : 6702,
            "sourceId" : "",
            "startColumn" : 166,
            "startLine" : 6702
          }
        } ],
        "parameters" : [ ]
      },
      "name" : "c3_choice"
    } ],
    "name" : "DeliverableObligations",
    "package" : "FpML::model",
    "properties" : [ {
      "multiplicity" : {
        "lowerBound" : 0,
        "upperBound" : 1
      },
      "name" : "accruedInterest",
      "taggedValues" : [ {
        "tag" : {
          "profile" : "meta::pure::profiles::doc",
          "value" : "doc"
        },
        "value" : "Indicates whether accrued interest is included (true) or not (false). For cash settlement this specifies whether quotations should be obtained inclusive or not of accrued interest. For physical settlement this specifies whether the buyer should deliver the obligation with an outstanding principal balance that includes or excludes accrued interest. ISDA 2003 Term: Include/Exclude Accrued Interest"
      } ],
      "type" : "Boolean"
    }, {
      "multiplicity" : {
        "lowerBound" : 0,
        "upperBound" : 1
      },
      "name" : "category",
      "taggedValues" : [ {
        "tag" : {
          "profile" : "meta::pure::profiles::doc",
          "value" : "doc"
        },
        "value" : "Used in both obligations and deliverable obligations to represent a class or type of securities which apply. ISDA 2003 Term: Obligation Category/Deliverable Obligation Category"
      } ],
      "type" : "FpML::model::ObligationCategoryEnum"
    }, {
      "multiplicity" : {
        "lowerBound" : 0,
        "upperBound" : 1
      },
      "name" : "notSubordinated",
      "taggedValues" : [ {
        "tag" : {
          "profile" : "meta::pure::profiles::doc",
          "value" : "doc"
        },
        "value" : "An obligation and deliverable obligation characteristic. An obligation that ranks at least equal with the most senior Reference Obligation in priority of payment or, if no Reference Obligation is specified in the related Confirmation, the obligations of the Reference Entity that are senior. ISDA 2003 Term: Not Subordinated"
      } ],
      "type" : "Boolean"
    }, {
      "multiplicity" : {
        "lowerBound" : 0,
        "upperBound" : 1
      },
      "name" : "specifiedCurrency",
      "taggedValues" : [ {
        "tag" : {
          "profile" : "meta::pure::profiles::doc",
          "value" : "doc"
        },
        "value" : "An obligation and deliverable obligation characteristic. The currency or currencies in which an obligation or deliverable obligation must be payable. ISDA 2003 Term: Specified Currency"
      } ],
      "type" : "FpML::model::SpecifiedCurrency"
    }, {
      "multiplicity" : {
        "lowerBound" : 0,
        "upperBound" : 1
      },
      "name" : "notSovereignLender",
      "taggedValues" : [ {
        "tag" : {
          "profile" : "meta::pure::profiles::doc",
          "value" : "doc"
        },
        "value" : "An obligation and deliverable obligation characteristic. Any obligation that is not primarily (majority) owed to a Sovereign or Supranational Organization. ISDA 2003 Term: Not Sovereign Lender"
      } ],
      "type" : "Boolean"
    }, {
      "multiplicity" : {
        "lowerBound" : 0,
        "upperBound" : 1
      },
      "name" : "notDomesticCurrency",
      "taggedValues" : [ {
        "tag" : {
          "profile" : "meta::pure::profiles::doc",
          "value" : "doc"
        },
        "value" : "An obligation and deliverable obligation characteristic. Any obligation that is payable in any currency other than the domestic currency. Domestic currency is either the currency so specified or, if no currency is specified, the currency of (a) the reference entity, if the reference entity is a sovereign, or (b) the jurisdiction in which the relevant reference entity is organised, if the reference entity is not a sovereign. ISDA 2003 Term: Not Domestic Currency"
      } ],
      "type" : "FpML::model::NotDomesticCurrency"
    }, {
      "multiplicity" : {
        "lowerBound" : 0,
        "upperBound" : 1
      },
      "name" : "notDomesticLaw",
      "taggedValues" : [ {
        "tag" : {
          "profile" : "meta::pure::profiles::doc",
          "value" : "doc"
        },
        "value" : "An obligation and deliverable obligation characteristic. If the reference entity is a Sovereign, this means any obligation that is not subject to the laws of the reference entity. If the reference entity is not a sovereign, this means any obligation that is not subject to the laws of the jurisdiction of the reference entity. ISDA 2003 Term: Not Domestic Law"
      } ],
      "type" : "Boolean"
    }, {
      "multiplicity" : {
        "lowerBound" : 0,
        "upperBound" : 1
      },
      "name" : "listed",
      "taggedValues" : [ {
        "tag" : {
          "profile" : "meta::pure::profiles::doc",
          "value" : "doc"
        },
        "value" : "An obligation and deliverable obligation characteristic. Indicates whether or not the obligation is quoted, listed or ordinarily purchased and sold on an exchange. ISDA 2003 Term: Listed"
      } ],
      "type" : "Boolean"
    }, {
      "multiplicity" : {
        "lowerBound" : 0,
        "upperBound" : 1
      },
      "name" : "notContingent",
      "taggedValues" : [ {
        "tag" : {
          "profile" : "meta::pure::profiles::doc",
          "value" : "doc"
        },
        "value" : "A deliverable obligation characteristic. In essence Not Contingent means the repayment of principal cannot be dependant on a formula/index, i.e. to prevent the risk of being delivered an instrument that may never pay any element of principal, and to ensure that the obligation is interest bearing (on a regular schedule). ISDA 2003 Term: Not Contingent"
      } ],
      "type" : "Boolean"
    }, {
      "multiplicity" : {
        "lowerBound" : 0,
        "upperBound" : 1
      },
      "name" : "notDomesticIssuance",
      "taggedValues" : [ {
        "tag" : {
          "profile" : "meta::pure::profiles::doc",
          "value" : "doc"
        },
        "value" : "An obligation and deliverable obligation characteristic. Any obligation other than an obligation that was intended to be offered for sale primarily in the domestic market of the relevant Reference Entity. This specifies that the obligation must be an internationally recognized bond. ISDA 2003 Term: Not Domestic Issuance"
      } ],
      "type" : "Boolean"
    }, {
      "multiplicity" : {
        "lowerBound" : 0,
        "upperBound" : 1
      },
      "name" : "assignableLoan",
      "taggedValues" : [ {
        "tag" : {
          "profile" : "meta::pure::profiles::doc",
          "value" : "doc"
        },
        "value" : "A deliverable obligation characteristic. A loan that is freely assignable to a bank or financial institution without the consent of the Reference Entity or the guarantor, if any, of the loan (or the consent of the applicable borrower if a Reference Entity is guaranteeing the loan) or any agent. ISDA 2003 Term: Assignable Loan"
      } ],
      "type" : "FpML::model::PcDeliverableObligationCharac"
    }, {
      "multiplicity" : {
        "lowerBound" : 0,
        "upperBound" : 1
      },
      "name" : "consentRequiredLoan",
      "taggedValues" : [ {
        "tag" : {
          "profile" : "meta::pure::profiles::doc",
          "value" : "doc"
        },
        "value" : "A deliverable obligation characteristic. A loan that is capable of being assigned with the consent of the Reference Entity or the guarantor, if any, of the loan or any agent. ISDA 2003 Term: Consent Required Loan"
      } ],
      "type" : "FpML::model::PcDeliverableObligationCharac"
    }, {
      "multiplicity" : {
        "lowerBound" : 0,
        "upperBound" : 1
      },
      "name" : "directLoanParticipation",
      "taggedValues" : [ {
        "tag" : {
          "profile" : "meta::pure::profiles::doc",
          "value" : "doc"
        },
        "value" : "A deliverable obligation characteristic. A loan with a participation agreement whereby the buyer is capable of creating, or procuring the creation of, a contractual right in favour of the seller that provides the seller with recourse to the participation seller for a specified share in any payments due under the relevant loan which are received by the participation seller. ISDA 2003 Term: Direct Loan Participation"
      } ],
      "type" : "FpML::model::LoanParticipation"
    }, {
      "multiplicity" : {
        "lowerBound" : 0,
        "upperBound" : 1
      },
      "name" : "transferable",
      "taggedValues" : [ {
        "tag" : {
          "profile" : "meta::pure::profiles::doc",
          "value" : "doc"
        },
        "value" : "A deliverable obligation characteristic. An obligation that is transferable to institutional investors without any contractual, statutory or regulatory restrictions. ISDA 2003 Term: Transferable"
      } ],
      "type" : "Boolean"
    }, {
      "multiplicity" : {
        "lowerBound" : 0,
        "upperBound" : 1
      },
      "name" : "maximumMaturity",
      "taggedValues" : [ {
        "tag" : {
          "profile" : "meta::pure::profiles::doc",
          "value" : "doc"
        },
        "value" : "A deliverable obligation characteristic. An obligation that has a remaining maturity from the Physical Settlement Date of not greater than the period specified. ISDA 2003 Term: Maximum Maturity"
      } ],
      "type" : "FpML::model::Period"
    }, {
      "multiplicity" : {
        "lowerBound" : 0,
        "upperBound" : 1
      },
      "name" : "acceleratedOrMatured",
      "taggedValues" : [ {
        "tag" : {
          "profile" : "meta::pure::profiles::doc",
          "value" : "doc"
        },
        "value" : "A deliverable obligation characteristic. An obligation at time of default is due to mature and due to be repaid, or as a result of downgrade/bankruptcy is due to be repaid as a result of an acceleration clause. ISDA 2003 Term: Accelerated or Matured"
      } ],
      "type" : "Boolean"
    }, {
      "multiplicity" : {
        "lowerBound" : 0,
        "upperBound" : 1
      },
      "name" : "notBearer",
      "taggedValues" : [ {
        "tag" : {
          "profile" : "meta::pure::profiles::doc",
          "value" : "doc"
        },
        "value" : "A deliverable obligation characteristic. Any obligation that is not a bearer instrument. This applies to Bonds only and is meant to avoid tax, fraud and security/delivery provisions that can potentially be associated with Bearer Bonds. ISDA 2003 Term: Not Bearer"
      } ],
      "type" : "Boolean"
    }, {
      "multiplicity" : {
        "lowerBound" : 0,
        "upperBound" : 1
      },
      "name" : "fullFaithAndCreditObLiability",
      "taggedValues" : [ {
        "tag" : {
          "profile" : "meta::pure::profiles::doc",
          "value" : "doc"
        },
        "value" : "An obligation and deliverable obligation characteristic. Defined in the ISDA published additional provisions for U.S. Municipal as Reference Entity. ISDA 2003 Term: Full Faith and Credit Obligation Liability"
      } ],
      "type" : "Boolean"
    }, {
      "multiplicity" : {
        "lowerBound" : 0,
        "upperBound" : 1
      },
      "name" : "generalFundObligationLiability",
      "taggedValues" : [ {
        "tag" : {
          "profile" : "meta::pure::profiles::doc",
          "value" : "doc"
        },
        "value" : "An obligation and deliverable obligation characteristic. Defined in the ISDA published additional provisions for U.S. Municipal as Reference Entity. ISDA 2003 Term: General Fund Obligation Liability"
      } ],
      "type" : "Boolean"
    }, {
      "multiplicity" : {
        "lowerBound" : 0,
        "upperBound" : 1
      },
      "name" : "revenueObligationLiability",
      "taggedValues" : [ {
        "tag" : {
          "profile" : "meta::pure::profiles::doc",
          "value" : "doc"
        },
        "value" : "An obligation and deliverable obligation characteristic. Defined in the ISDA published additional provisions for U.S. Municipal as Reference Entity. ISDA 2003 Term: Revenue Obligation Liability"
      } ],
      "type" : "Boolean"
    }, {
      "multiplicity" : {
        "lowerBound" : 0,
        "upperBound" : 1
      },
      "name" : "indirectLoanParticipation",
      "taggedValues" : [ {
        "tag" : {
          "profile" : "meta::pure::profiles::doc",
          "value" : "doc"
        },
        "value" : "ISDA 1999 Term: Indirect Loan Participation. NOTE: Only applicable as a deliverable obligation under ISDA Credit 1999."
      } ],
      "type" : "FpML::model::LoanParticipation"
    }, {
      "multiplicity" : {
        "lowerBound" : 0,
        "upperBound" : 1
      },
      "name" : "excluded",
      "taggedValues" : [ {
        "tag" : {
          "profile" : "meta::pure::profiles::doc",
          "value" : "doc"
        },
        "value" : "A free format string to specify any excluded obligations or deliverable obligations, as the case may be, of the reference entity or excluded types of obligations or deliverable obligations. ISDA 2003 Term: Excluded Obligations/Excluded Deliverable Obligations"
      } ],
      "type" : "String"
    }, {
      "multiplicity" : {
        "lowerBound" : 0,
        "upperBound" : 1
      },
      "name" : "othReferenceEntityObligations",
      "taggedValues" : [ {
        "tag" : {
          "profile" : "meta::pure::profiles::doc",
          "value" : "doc"
        },
        "value" : "This element is used to specify any other obligations of a reference entity in both obligations and deliverable obligations. The obligations can be specified free-form. ISDA 2003 Term: Other Obligations of a Reference Entity"
      } ],
      "type" : "String"
    } ]
  }
}