{
  "classifierPath" : "meta::pure::metamodel::type::Enumeration",
  "content" : {
    "_type" : "Enumeration",
    "name" : "DisruptionFallbacksEnum",
    "package" : "FpML::model",
    "taggedValues" : [ {
      "tag" : {
        "profile" : "meta::pure::profiles::doc",
        "value" : "doc"
      },
      "value" : "The specification of how disruption fallbacks will be represented."
    } ],
    "values" : [ {
      "value" : "AsSpecifiedInMasterAgreement"
    }, {
      "value" : "AsSpecifiedInConfirmation"
    } ]
  }
}