{
  "classifierPath" : "meta::pure::metamodel::type::Class",
  "content" : {
    "_type" : "class",
    "constraints" : [ {
      "functionDefinition" : {
        "_type" : "lambda",
        "body" : [ {
          "_type" : "func",
          "function" : "forAll",
          "parameters" : [ {
            "_type" : "property",
            "parameters" : [ {
              "_type" : "var",
              "name" : "this",
              "sourceInformation" : {
                "endColumn" : 18,
                "endLine" : 6773,
                "sourceId" : "",
                "startColumn" : 14,
                "startLine" : 6773
              }
            } ],
            "property" : "dividendPayoutConditions",
            "sourceInformation" : {
              "endColumn" : 43,
              "endLine" : 6773,
              "sourceId" : "",
              "startColumn" : 20,
              "startLine" : 6773
            }
          }, {
            "_type" : "lambda",
            "body" : [ {
              "_type" : "func",
              "function" : "greaterThanEqual",
              "parameters" : [ {
                "_type" : "func",
                "function" : "length",
                "parameters" : [ {
                  "_type" : "var",
                  "name" : "x",
                  "sourceInformation" : {
                    "endColumn" : 67,
                    "endLine" : 6773,
                    "sourceId" : "",
                    "startColumn" : 66,
                    "startLine" : 6773
                  }
                } ],
                "sourceInformation" : {
                  "endColumn" : 75,
                  "endLine" : 6773,
                  "sourceId" : "",
                  "startColumn" : 70,
                  "startLine" : 6773
                }
              }, {
                "_type" : "integer",
                "multiplicity" : {
                  "lowerBound" : 1,
                  "upperBound" : 1
                },
                "sourceInformation" : {
                  "endColumn" : 82,
                  "endLine" : 6773,
                  "sourceId" : "",
                  "startColumn" : 82,
                  "startLine" : 6773
                },
                "values" : [ 1 ]
              } ],
              "sourceInformation" : {
                "endColumn" : 82,
                "endLine" : 6773,
                "sourceId" : "",
                "startColumn" : 79,
                "startLine" : 6773
              }
            } ],
            "parameters" : [ {
              "_type" : "var",
              "class" : "String",
              "multiplicity" : {
                "lowerBound" : 1,
                "upperBound" : 1
              },
              "name" : "x",
              "sourceInformation" : {
                "endColumn" : 61,
                "endLine" : 6773,
                "sourceId" : "",
                "startColumn" : 56,
                "startLine" : 6773
              }
            } ],
            "sourceInformation" : {
              "endColumn" : 82,
              "endLine" : 6773,
              "sourceId" : "",
              "startColumn" : 65,
              "startLine" : 6773
            }
          } ],
          "sourceInformation" : {
            "endColumn" : 51,
            "endLine" : 6773,
            "sourceId" : "",
            "startColumn" : 46,
            "startLine" : 6773
          }
        } ],
        "parameters" : [ ]
      },
      "name" : "c1_length"
    }, {
      "functionDefinition" : {
        "_type" : "lambda",
        "body" : [ {
          "_type" : "func",
          "function" : "or",
          "parameters" : [ {
            "_type" : "func",
            "function" : "isEmpty",
            "parameters" : [ {
              "_type" : "property",
              "parameters" : [ {
                "_type" : "var",
                "name" : "this",
                "sourceInformation" : {
                  "endColumn" : 18,
                  "endLine" : 6774,
                  "sourceId" : "",
                  "startColumn" : 14,
                  "startLine" : 6774
                }
              } ],
              "property" : "dividendPayoutConditions",
              "sourceInformation" : {
                "endColumn" : 43,
                "endLine" : 6774,
                "sourceId" : "",
                "startColumn" : 20,
                "startLine" : 6774
              }
            } ],
            "sourceInformation" : {
              "endColumn" : 52,
              "endLine" : 6774,
              "sourceId" : "",
              "startColumn" : 46,
              "startLine" : 6774
            }
          }, {
            "_type" : "func",
            "function" : "and",
            "parameters" : [ {
              "_type" : "func",
              "function" : "isEmpty",
              "parameters" : [ {
                "_type" : "property",
                "parameters" : [ {
                  "_type" : "var",
                  "name" : "this",
                  "sourceInformation" : {
                    "endColumn" : 64,
                    "endLine" : 6774,
                    "sourceId" : "",
                    "startColumn" : 60,
                    "startLine" : 6774
                  }
                } ],
                "property" : "dividendPayoutRatio",
                "sourceInformation" : {
                  "endColumn" : 84,
                  "endLine" : 6774,
                  "sourceId" : "",
                  "startColumn" : 66,
                  "startLine" : 6774
                }
              } ],
              "sourceInformation" : {
                "endColumn" : 93,
                "endLine" : 6774,
                "sourceId" : "",
                "startColumn" : 87,
                "startLine" : 6774
              }
            }, {
              "_type" : "func",
              "function" : "and",
              "parameters" : [ {
                "_type" : "func",
                "function" : "isEmpty",
                "parameters" : [ {
                  "_type" : "property",
                  "parameters" : [ {
                    "_type" : "var",
                    "name" : "this",
                    "sourceInformation" : {
                      "endColumn" : 105,
                      "endLine" : 6774,
                      "sourceId" : "",
                      "startColumn" : 101,
                      "startLine" : 6774
                    }
                  } ],
                  "property" : "dividendPayoutRatioCash",
                  "sourceInformation" : {
                    "endColumn" : 129,
                    "endLine" : 6774,
                    "sourceId" : "",
                    "startColumn" : 107,
                    "startLine" : 6774
                  }
                } ],
                "sourceInformation" : {
                  "endColumn" : 138,
                  "endLine" : 6774,
                  "sourceId" : "",
                  "startColumn" : 132,
                  "startLine" : 6774
                }
              }, {
                "_type" : "func",
                "function" : "and",
                "parameters" : [ {
                  "_type" : "func",
                  "function" : "isEmpty",
                  "parameters" : [ {
                    "_type" : "property",
                    "parameters" : [ {
                      "_type" : "var",
                      "name" : "this",
                      "sourceInformation" : {
                        "endColumn" : 150,
                        "endLine" : 6774,
                        "sourceId" : "",
                        "startColumn" : 146,
                        "startLine" : 6774
                      }
                    } ],
                    "property" : "dividendPayoutRatioNonCash",
                    "sourceInformation" : {
                      "endColumn" : 177,
                      "endLine" : 6774,
                      "sourceId" : "",
                      "startColumn" : 152,
                      "startLine" : 6774
                    }
                  } ],
                  "sourceInformation" : {
                    "endColumn" : 186,
                    "endLine" : 6774,
                    "sourceId" : "",
                    "startColumn" : 180,
                    "startLine" : 6774
                  }
                }, {
                  "_type" : "func",
                  "function" : "isNotEmpty",
                  "parameters" : [ {
                    "_type" : "property",
                    "parameters" : [ {
                      "_type" : "var",
                      "name" : "this",
                      "sourceInformation" : {
                        "endColumn" : 197,
                        "endLine" : 6774,
                        "sourceId" : "",
                        "startColumn" : 193,
                        "startLine" : 6774
                      }
                    } ],
                    "property" : "dividendPayoutConditions",
                    "sourceInformation" : {
                      "endColumn" : 222,
                      "endLine" : 6774,
                      "sourceId" : "",
                      "startColumn" : 199,
                      "startLine" : 6774
                    }
                  } ],
                  "sourceInformation" : {
                    "endColumn" : 234,
                    "endLine" : 6774,
                    "sourceId" : "",
                    "startColumn" : 225,
                    "startLine" : 6774
                  }
                } ],
                "sourceInformation" : {
                  "endColumn" : 191,
                  "endLine" : 6774,
                  "sourceId" : "",
                  "startColumn" : 190,
                  "startLine" : 6774
                }
              } ],
              "sourceInformation" : {
                "endColumn" : 143,
                "endLine" : 6774,
                "sourceId" : "",
                "startColumn" : 142,
                "startLine" : 6774
              }
            } ],
            "sourceInformation" : {
              "endColumn" : 98,
              "endLine" : 6774,
              "sourceId" : "",
              "startColumn" : 97,
              "startLine" : 6774
            }
          } ],
          "sourceInformation" : {
            "endColumn" : 57,
            "endLine" : 6774,
            "sourceId" : "",
            "startColumn" : 56,
            "startLine" : 6774
          }
        } ],
        "parameters" : [ ]
      },
      "name" : "c2_choice"
    } ],
    "name" : "DividendPayout",
    "package" : "FpML::model",
    "properties" : [ {
      "multiplicity" : {
        "lowerBound" : 0,
        "upperBound" : 1
      },
      "name" : "dividendPayoutRatio",
      "taggedValues" : [ {
        "tag" : {
          "profile" : "meta::pure::profiles::doc",
          "value" : "doc"
        },
        "value" : "Specifies the total actual dividend payout ratio associated with the equity underlyer."
      } ],
      "type" : "Decimal"
    }, {
      "multiplicity" : {
        "lowerBound" : 0,
        "upperBound" : 1
      },
      "name" : "dividendPayoutRatioCash",
      "taggedValues" : [ {
        "tag" : {
          "profile" : "meta::pure::profiles::doc",
          "value" : "doc"
        },
        "value" : "Specifies the cash actual dividend payout ratio associated with the equity underlyer."
      } ],
      "type" : "Decimal"
    }, {
      "multiplicity" : {
        "lowerBound" : 0,
        "upperBound" : 1
      },
      "name" : "dividendPayoutRatioNonCash",
      "taggedValues" : [ {
        "tag" : {
          "profile" : "meta::pure::profiles::doc",
          "value" : "doc"
        },
        "value" : "Specifies the non cash actual dividend payout ratio associated with the equity underlyer."
      } ],
      "type" : "Decimal"
    }, {
      "multiplicity" : {
        "lowerBound" : 0,
        "upperBound" : 1
      },
      "name" : "dividendPayoutConditions",
      "taggedValues" : [ {
        "tag" : {
          "profile" : "meta::pure::profiles::doc",
          "value" : "doc"
        },
        "value" : "Specifies the dividend payout conditions that will be applied in the case where the actual ratio is not known, typically because of regulatory or legal uncertainties."
      } ],
      "type" : "String"
    }, {
      "multiplicity" : {
        "lowerBound" : 0
      },
      "name" : "dividendPayment",
      "taggedValues" : [ {
        "tag" : {
          "profile" : "meta::pure::profiles::doc",
          "value" : "doc"
        },
        "value" : "The next upcoming dividend payment or payments."
      } ],
      "type" : "FpML::model::PendingPayment"
    } ],
    "taggedValues" : [ {
      "tag" : {
        "profile" : "meta::pure::profiles::doc",
        "value" : "doc"
      },
      "value" : "A type describing the dividend payout ratio associated with an equity underlyer. In certain cases the actual ratio is not known on trade inception, and only general conditions are then specified."
    } ]
  }
}