{
  "classifierPath" : "meta::pure::metamodel::type::Class",
  "content" : {
    "_type" : "class",
    "constraints" : [ {
      "functionDefinition" : {
        "_type" : "lambda",
        "body" : [ {
          "_type" : "func",
          "function" : "or",
          "parameters" : [ {
            "_type" : "func",
            "function" : "and",
            "parameters" : [ {
              "_type" : "func",
              "function" : "isNotEmpty",
              "parameters" : [ {
                "_type" : "property",
                "parameters" : [ {
                  "_type" : "var",
                  "name" : "this",
                  "sourceInformation" : {
                    "endColumn" : 19,
                    "endLine" : 6945,
                    "sourceId" : "",
                    "startColumn" : 15,
                    "startLine" : 6945
                  }
                } ],
                "property" : "feeAmountSchedule",
                "sourceInformation" : {
                  "endColumn" : 37,
                  "endLine" : 6945,
                  "sourceId" : "",
                  "startColumn" : 21,
                  "startLine" : 6945
                }
              } ],
              "sourceInformation" : {
                "endColumn" : 49,
                "endLine" : 6945,
                "sourceId" : "",
                "startColumn" : 40,
                "startLine" : 6945
              }
            }, {
              "_type" : "func",
              "function" : "isEmpty",
              "parameters" : [ {
                "_type" : "property",
                "parameters" : [ {
                  "_type" : "var",
                  "name" : "this",
                  "sourceInformation" : {
                    "endColumn" : 60,
                    "endLine" : 6945,
                    "sourceId" : "",
                    "startColumn" : 56,
                    "startLine" : 6945
                  }
                } ],
                "property" : "feeRateSchedule",
                "sourceInformation" : {
                  "endColumn" : 76,
                  "endLine" : 6945,
                  "sourceId" : "",
                  "startColumn" : 62,
                  "startLine" : 6945
                }
              } ],
              "sourceInformation" : {
                "endColumn" : 85,
                "endLine" : 6945,
                "sourceId" : "",
                "startColumn" : 79,
                "startLine" : 6945
              }
            } ],
            "sourceInformation" : {
              "endColumn" : 54,
              "endLine" : 6945,
              "sourceId" : "",
              "startColumn" : 53,
              "startLine" : 6945
            }
          }, {
            "_type" : "func",
            "function" : "and",
            "parameters" : [ {
              "_type" : "func",
              "function" : "isEmpty",
              "parameters" : [ {
                "_type" : "property",
                "parameters" : [ {
                  "_type" : "var",
                  "name" : "this",
                  "sourceInformation" : {
                    "endColumn" : 98,
                    "endLine" : 6945,
                    "sourceId" : "",
                    "startColumn" : 94,
                    "startLine" : 6945
                  }
                } ],
                "property" : "feeAmountSchedule",
                "sourceInformation" : {
                  "endColumn" : 116,
                  "endLine" : 6945,
                  "sourceId" : "",
                  "startColumn" : 100,
                  "startLine" : 6945
                }
              } ],
              "sourceInformation" : {
                "endColumn" : 125,
                "endLine" : 6945,
                "sourceId" : "",
                "startColumn" : 119,
                "startLine" : 6945
              }
            }, {
              "_type" : "func",
              "function" : "isNotEmpty",
              "parameters" : [ {
                "_type" : "property",
                "parameters" : [ {
                  "_type" : "var",
                  "name" : "this",
                  "sourceInformation" : {
                    "endColumn" : 136,
                    "endLine" : 6945,
                    "sourceId" : "",
                    "startColumn" : 132,
                    "startLine" : 6945
                  }
                } ],
                "property" : "feeRateSchedule",
                "sourceInformation" : {
                  "endColumn" : 152,
                  "endLine" : 6945,
                  "sourceId" : "",
                  "startColumn" : 138,
                  "startLine" : 6945
                }
              } ],
              "sourceInformation" : {
                "endColumn" : 164,
                "endLine" : 6945,
                "sourceId" : "",
                "startColumn" : 155,
                "startLine" : 6945
              }
            } ],
            "sourceInformation" : {
              "endColumn" : 130,
              "endLine" : 6945,
              "sourceId" : "",
              "startColumn" : 129,
              "startLine" : 6945
            }
          } ],
          "sourceInformation" : {
            "endColumn" : 91,
            "endLine" : 6945,
            "sourceId" : "",
            "startColumn" : 90,
            "startLine" : 6945
          }
        } ],
        "parameters" : [ ]
      },
      "name" : "c1_choice"
    } ],
    "name" : "ExerciseFeeSchedule",
    "package" : "FpML::model",
    "properties" : [ {
      "multiplicity" : {
        "lowerBound" : 0,
        "upperBound" : 1
      },
      "name" : "payerPartyReference",
      "taggedValues" : [ {
        "tag" : {
          "profile" : "meta::pure::profiles::doc",
          "value" : "doc"
        },
        "value" : "A reference to the party responsible for making the payments defined by this structure."
      } ],
      "type" : "FpML::model::PartyReference"
    }, {
      "multiplicity" : {
        "lowerBound" : 0,
        "upperBound" : 1
      },
      "name" : "payerAccountReference",
      "taggedValues" : [ {
        "tag" : {
          "profile" : "meta::pure::profiles::doc",
          "value" : "doc"
        },
        "value" : "A reference to the account responsible for making the payments defined by this structure."
      } ],
      "type" : "FpML::model::AccountReference"
    }, {
      "multiplicity" : {
        "lowerBound" : 0,
        "upperBound" : 1
      },
      "name" : "receiverPartyReference",
      "taggedValues" : [ {
        "tag" : {
          "profile" : "meta::pure::profiles::doc",
          "value" : "doc"
        },
        "value" : "A reference to the party that receives the payments corresponding to this structure."
      } ],
      "type" : "FpML::model::PartyReference"
    }, {
      "multiplicity" : {
        "lowerBound" : 0,
        "upperBound" : 1
      },
      "name" : "receiverAccountReference",
      "taggedValues" : [ {
        "tag" : {
          "profile" : "meta::pure::profiles::doc",
          "value" : "doc"
        },
        "value" : "A reference to the account that receives the payments corresponding to this structure."
      } ],
      "type" : "FpML::model::AccountReference"
    }, {
      "multiplicity" : {
        "lowerBound" : 0,
        "upperBound" : 1
      },
      "name" : "notionalReference",
      "taggedValues" : [ {
        "tag" : {
          "profile" : "meta::pure::profiles::doc",
          "value" : "doc"
        },
        "value" : "A pointer style reference to the associated notional schedule defined elsewhere in the document."
      } ],
      "type" : "FpML::model::ScheduleReference"
    }, {
      "multiplicity" : {
        "lowerBound" : 0,
        "upperBound" : 1
      },
      "name" : "feeAmountSchedule",
      "taggedValues" : [ {
        "tag" : {
          "profile" : "meta::pure::profiles::doc",
          "value" : "doc"
        },
        "value" : "The exercise fee amount schedule. The fees are expressed as currency amounts. The currency of the fee is assumed to be that of the notional schedule referenced."
      } ],
      "type" : "FpML::model::AmountSchedule"
    }, {
      "multiplicity" : {
        "lowerBound" : 0,
        "upperBound" : 1
      },
      "name" : "feeRateSchedule",
      "taggedValues" : [ {
        "tag" : {
          "profile" : "meta::pure::profiles::doc",
          "value" : "doc"
        },
        "value" : "The exercise free rate schedule. The fees are expressed as percentage rates of the notional being exercised. The currency of the fee is assumed to be that of the notional schedule referenced."
      } ],
      "type" : "FpML::model::Schedule"
    }, {
      "multiplicity" : {
        "lowerBound" : 0,
        "upperBound" : 1
      },
      "name" : "feePaymentDate",
      "taggedValues" : [ {
        "tag" : {
          "profile" : "meta::pure::profiles::doc",
          "value" : "doc"
        },
        "value" : "The date on which exercise fee(s) will be paid. It is specified as a relative date."
      } ],
      "type" : "FpML::model::RelativeDateOffset"
    } ],
    "taggedValues" : [ {
      "tag" : {
        "profile" : "meta::pure::profiles::doc",
        "value" : "doc"
      },
      "value" : "A type to define a fee or schedule of fees to be payable on the exercise of an option. This fee may be defined as an amount or a percentage of the notional exercised."
    } ]
  }
}