{
  "classifierPath" : "meta::pure::metamodel::type::Class",
  "content" : {
    "_type" : "class",
    "name" : "FloatingRateCalculation",
    "package" : "FpML::model",
    "properties" : [ {
      "multiplicity" : {
        "lowerBound" : 0,
        "upperBound" : 1
      },
      "name" : "initialRate",
      "taggedValues" : [ {
        "tag" : {
          "profile" : "meta::pure::profiles::doc",
          "value" : "doc"
        },
        "value" : "The initial floating rate reset agreed between the principal parties involved in the trade. This is assumed to be the first required reset rate for the first regular calculation period. It should only be included when the rate is not equal to the rate published on the source implied by the floating rate index. An initial rate of 5% would be represented as 0.05. The initial floating rate reset agreed between the principal parties involved in the trade. This is assumed to be the first required reset rate for the first regular calculation period. It should only be included when the rate is not equal to the rate published on the source implied by the floating rate index. An initial rate of 5% would be represented as 0.05. - For use with pre-trade Credit Limit Check messages."
      } ],
      "type" : "Decimal"
    }, {
      "multiplicity" : {
        "lowerBound" : 0,
        "upperBound" : 1
      },
      "name" : "finalRateRounding",
      "taggedValues" : [ {
        "tag" : {
          "profile" : "meta::pure::profiles::doc",
          "value" : "doc"
        },
        "value" : "The rounding convention to apply to the final rate used in determination of a calculation period amount. The rounding convention to apply to the final rate used in determination of a calculation period amount. - For use with pre-trade Credit Limit Check messages."
      } ],
      "type" : "FpML::model::Rounding"
    }, {
      "multiplicity" : {
        "lowerBound" : 0,
        "upperBound" : 1
      },
      "name" : "averagingMethod",
      "taggedValues" : [ {
        "tag" : {
          "profile" : "meta::pure::profiles::doc",
          "value" : "doc"
        },
        "value" : "If averaging is applicable, this component specifies whether a weighted or unweighted average method of calculation is to be used. The component must only be included when averaging applies. If averaging is applicable, this component specifies whether a weighted or unweighted average method of calculation is to be used. The component must only be included when averaging applies. - For use with pre-trade Credit Limit Check messages."
      } ],
      "type" : "FpML::model::AveragingMethodEnum"
    }, {
      "multiplicity" : {
        "lowerBound" : 0,
        "upperBound" : 1
      },
      "name" : "negativeInterestRateTreatment",
      "taggedValues" : [ {
        "tag" : {
          "profile" : "meta::pure::profiles::doc",
          "value" : "doc"
        },
        "value" : "The specification of any provisions for calculating payment obligations when a floating rate is negative (either due to a quoted negative floating rate or by operation of a spread that is subtracted from the floating rate). The specification of any provisions for calculating payment obligations when a floating rate is negative (either due to a quoted negative floating rate or by operation of a spread that is subtracted from the floating rate). - For use with pre-trade Credit Limit Check messages."
      } ],
      "type" : "FpML::model::NegativeInterestRateTreatmentEnum"
    } ],
    "superTypes" : [ "FpML::model::FloatingRate" ],
    "taggedValues" : [ {
      "tag" : {
        "profile" : "meta::pure::profiles::doc",
        "value" : "doc"
      },
      "value" : "A type defining the floating rate and definitions relating to the calculation of floating rate amounts."
    } ]
  }
}