{
  "classifierPath" : "meta::pure::metamodel::type::Class",
  "content" : {
    "_type" : "class",
    "constraints" : [ {
      "functionDefinition" : {
        "_type" : "lambda",
        "body" : [ {
          "_type" : "func",
          "function" : "forAll",
          "parameters" : [ {
            "_type" : "property",
            "parameters" : [ {
              "_type" : "var",
              "name" : "this",
              "sourceInformation" : {
                "endColumn" : 17,
                "endLine" : 7163,
                "sourceId" : "",
                "startColumn" : 13,
                "startLine" : 7163
              }
            } ],
            "property" : "multiplier",
            "sourceInformation" : {
              "endColumn" : 28,
              "endLine" : 7163,
              "sourceId" : "",
              "startColumn" : 19,
              "startLine" : 7163
            }
          }, {
            "_type" : "lambda",
            "body" : [ {
              "_type" : "func",
              "function" : "greaterThan",
              "parameters" : [ {
                "_type" : "var",
                "name" : "x",
                "sourceInformation" : {
                  "endColumn" : 53,
                  "endLine" : 7163,
                  "sourceId" : "",
                  "startColumn" : 52,
                  "startLine" : 7163
                }
              }, {
                "_type" : "integer",
                "multiplicity" : {
                  "lowerBound" : 1,
                  "upperBound" : 1
                },
                "sourceInformation" : {
                  "endColumn" : 57,
                  "endLine" : 7163,
                  "sourceId" : "",
                  "startColumn" : 57,
                  "startLine" : 7163
                },
                "values" : [ 0 ]
              } ],
              "sourceInformation" : {
                "endColumn" : 57,
                "endLine" : 7163,
                "sourceId" : "",
                "startColumn" : 55,
                "startLine" : 7163
              }
            } ],
            "parameters" : [ {
              "_type" : "var",
              "class" : "Decimal",
              "multiplicity" : {
                "lowerBound" : 1,
                "upperBound" : 1
              },
              "name" : "x",
              "sourceInformation" : {
                "endColumn" : 47,
                "endLine" : 7163,
                "sourceId" : "",
                "startColumn" : 41,
                "startLine" : 7163
              }
            } ],
            "sourceInformation" : {
              "endColumn" : 57,
              "endLine" : 7163,
              "sourceId" : "",
              "startColumn" : 51,
              "startLine" : 7163
            }
          } ],
          "sourceInformation" : {
            "endColumn" : 36,
            "endLine" : 7163,
            "sourceId" : "",
            "startColumn" : 31,
            "startLine" : 7163
          }
        } ],
        "parameters" : [ ]
      },
      "name" : "c1_range"
    }, {
      "functionDefinition" : {
        "_type" : "lambda",
        "body" : [ {
          "_type" : "func",
          "function" : "forAll",
          "parameters" : [ {
            "_type" : "property",
            "parameters" : [ {
              "_type" : "var",
              "name" : "this",
              "sourceInformation" : {
                "endColumn" : 18,
                "endLine" : 7164,
                "sourceId" : "",
                "startColumn" : 14,
                "startLine" : 7164
              }
            } ],
            "property" : "futureContractReference",
            "sourceInformation" : {
              "endColumn" : 42,
              "endLine" : 7164,
              "sourceId" : "",
              "startColumn" : 20,
              "startLine" : 7164
            }
          }, {
            "_type" : "lambda",
            "body" : [ {
              "_type" : "func",
              "function" : "greaterThanEqual",
              "parameters" : [ {
                "_type" : "func",
                "function" : "length",
                "parameters" : [ {
                  "_type" : "var",
                  "name" : "x",
                  "sourceInformation" : {
                    "endColumn" : 66,
                    "endLine" : 7164,
                    "sourceId" : "",
                    "startColumn" : 65,
                    "startLine" : 7164
                  }
                } ],
                "sourceInformation" : {
                  "endColumn" : 74,
                  "endLine" : 7164,
                  "sourceId" : "",
                  "startColumn" : 69,
                  "startLine" : 7164
                }
              }, {
                "_type" : "integer",
                "multiplicity" : {
                  "lowerBound" : 1,
                  "upperBound" : 1
                },
                "sourceInformation" : {
                  "endColumn" : 81,
                  "endLine" : 7164,
                  "sourceId" : "",
                  "startColumn" : 81,
                  "startLine" : 7164
                },
                "values" : [ 1 ]
              } ],
              "sourceInformation" : {
                "endColumn" : 81,
                "endLine" : 7164,
                "sourceId" : "",
                "startColumn" : 78,
                "startLine" : 7164
              }
            } ],
            "parameters" : [ {
              "_type" : "var",
              "class" : "String",
              "multiplicity" : {
                "lowerBound" : 1,
                "upperBound" : 1
              },
              "name" : "x",
              "sourceInformation" : {
                "endColumn" : 60,
                "endLine" : 7164,
                "sourceId" : "",
                "startColumn" : 55,
                "startLine" : 7164
              }
            } ],
            "sourceInformation" : {
              "endColumn" : 81,
              "endLine" : 7164,
              "sourceId" : "",
              "startColumn" : 64,
              "startLine" : 7164
            }
          } ],
          "sourceInformation" : {
            "endColumn" : 50,
            "endLine" : 7164,
            "sourceId" : "",
            "startColumn" : 45,
            "startLine" : 7164
          }
        } ],
        "parameters" : [ ]
      },
      "name" : "c2_length"
    } ],
    "name" : "Future",
    "package" : "FpML::model",
    "properties" : [ {
      "multiplicity" : {
        "lowerBound" : 0,
        "upperBound" : 1
      },
      "name" : "multiplier",
      "taggedValues" : [ {
        "tag" : {
          "profile" : "meta::pure::profiles::doc",
          "value" : "doc"
        },
        "value" : "The multiplier is the minimum number of the underlying - index or stock - that a participant has to trade while taking a position in the Future contract. The purpose of the multiplier is to inflate the value of the contract to add leverage to the trade. The multiplier for the Dow is 10, for the Nasdaq it is 100 and it is 250 for the Standard and Poor's index."
      } ],
      "type" : "Decimal"
    }, {
      "multiplicity" : {
        "lowerBound" : 0,
        "upperBound" : 1
      },
      "name" : "futureContractReference",
      "taggedValues" : [ {
        "tag" : {
          "profile" : "meta::pure::profiles::doc",
          "value" : "doc"
        },
        "value" : "Native identifier for the contract on the listing exchange."
      } ],
      "type" : "String"
    }, {
      "multiplicity" : {
        "lowerBound" : 0,
        "upperBound" : 1
      },
      "name" : "maturity",
      "taggedValues" : [ {
        "tag" : {
          "profile" : "meta::pure::profiles::doc",
          "value" : "doc"
        },
        "value" : "The date when the future contract expires."
      } ],
      "type" : "StrictDate"
    }, {
      "multiplicity" : {
        "lowerBound" : 0,
        "upperBound" : 1
      },
      "name" : "contractYearMonth",
      "taggedValues" : [ {
        "tag" : {
          "profile" : "meta::pure::profiles::doc",
          "value" : "doc"
        },
        "value" : "The contract month of the futures contract. i.e. F13 WTI NYMEX Contract is 2013-01."
      } ],
      "type" : "StrictDate"
    }, {
      "multiplicity" : {
        "lowerBound" : 0,
        "upperBound" : 1
      },
      "name" : "underlyer",
      "taggedValues" : [ {
        "tag" : {
          "profile" : "meta::pure::profiles::doc",
          "value" : "doc"
        },
        "value" : "Underlyer of the option e.g. a listed future."
      } ],
      "type" : "FpML::model::ExchangeTradedContractUnderlyer"
    }, {
      "multiplicity" : {
        "lowerBound" : 0,
        "upperBound" : 1
      },
      "name" : "settlementType",
      "taggedValues" : [ {
        "tag" : {
          "profile" : "meta::pure::profiles::doc",
          "value" : "doc"
        },
        "value" : "Settlement method for the contract (Cash, Physical). This value is used to populate the 'Delivery Type' field for regulatory reporting (CFTC, ESMA)."
      } ],
      "type" : "FpML::model::SettlementTypeEnum"
    } ],
    "superTypes" : [ "FpML::model::ExchangeTraded" ],
    "taggedValues" : [ {
      "tag" : {
        "profile" : "meta::pure::profiles::doc",
        "value" : "doc"
      },
      "value" : "An exchange traded future contract."
    } ]
  }
}