{
  "classifierPath" : "meta::pure::metamodel::type::Enumeration",
  "content" : {
    "_type" : "Enumeration",
    "name" : "FxAveragingMethodEnum",
    "package" : "FpML::model",
    "taggedValues" : [ {
      "tag" : {
        "profile" : "meta::pure::profiles::doc",
        "value" : "doc"
      },
      "value" : "Average calculation method e.g. Arithmetic, Harmonic)"
    } ],
    "values" : [ {
      "value" : "Arithmetic"
    }, {
      "value" : "Harmonic"
    } ]
  }
}