{
  "classifierPath" : "meta::pure::metamodel::type::Class",
  "content" : {
    "_type" : "class",
    "name" : "GenericSecurity",
    "package" : "FpML::model",
    "properties" : [ {
      "multiplicity" : {
        "lowerBound" : 0,
        "upperBound" : 1
      },
      "name" : "currency",
      "taggedValues" : [ {
        "tag" : {
          "profile" : "meta::pure::profiles::doc",
          "value" : "doc"
        },
        "value" : "Trading currency of the underlyer when transacted as a cash instrument."
      } ],
      "type" : "FpML::model::IdentifiedCurrency"
    }, {
      "multiplicity" : {
        "lowerBound" : 0,
        "upperBound" : 1
      },
      "name" : "issuerPartyReference",
      "taggedValues" : [ {
        "tag" : {
          "profile" : "meta::pure::profiles::doc",
          "value" : "doc"
        },
        "value" : "Specifies the issuer name of a fixed income security or convertible bond. The name is specified as an href into one of the party blocks."
      } ],
      "type" : "FpML::model::PartyReference"
    }, {
      "multiplicity" : {
        "lowerBound" : 0
      },
      "name" : "creditQuality",
      "taggedValues" : [ {
        "tag" : {
          "profile" : "meta::pure::profiles::doc",
          "value" : "doc"
        },
        "value" : "Credit quality type (e.g. SFTR specified types: 'INVG' - Investment grade; 'NIVG' - Non-investment grade; 'NOTR' - Non-rated). Classifies the risk of the security. Note: 'NOAP' - Not applicable value is indicated by the absence of the 'creditQuality' element."
      } ],
      "type" : "FpML::model::CreditQuality"
    }, {
      "multiplicity" : {
        "lowerBound" : 0,
        "upperBound" : 1
      },
      "name" : "maturity",
      "taggedValues" : [ {
        "tag" : {
          "profile" : "meta::pure::profiles::doc",
          "value" : "doc"
        },
        "value" : "Credit maturity. The date when the principal amount of a security becomes due and payable."
      } ],
      "type" : "StrictDate"
    } ],
    "superTypes" : [ "FpML::model::GenericAsset" ],
    "taggedValues" : [ {
      "tag" : {
        "profile" : "meta::pure::profiles::doc",
        "value" : "doc"
      },
      "value" : "Concrete type to support public/private identifiers and classification (ISIN, CFI, ...) for a security of unspecified type. Derived as no-operation extension on IdentifiedAsset (abstract base type)"
    } ]
  }
}