{
  "classifierPath" : "meta::pure::metamodel::type::Class",
  "content" : {
    "_type" : "class",
    "constraints" : [ {
      "functionDefinition" : {
        "_type" : "lambda",
        "body" : [ {
          "_type" : "func",
          "function" : "or",
          "parameters" : [ {
            "_type" : "func",
            "function" : "and",
            "parameters" : [ {
              "_type" : "func",
              "function" : "isNotEmpty",
              "parameters" : [ {
                "_type" : "property",
                "parameters" : [ {
                  "_type" : "var",
                  "name" : "this",
                  "sourceInformation" : {
                    "endColumn" : 19,
                    "endLine" : 7541,
                    "sourceId" : "",
                    "startColumn" : 15,
                    "startLine" : 7541
                  }
                } ],
                "property" : "floatingRateCalculation",
                "sourceInformation" : {
                  "endColumn" : 43,
                  "endLine" : 7541,
                  "sourceId" : "",
                  "startColumn" : 21,
                  "startLine" : 7541
                }
              } ],
              "sourceInformation" : {
                "endColumn" : 55,
                "endLine" : 7541,
                "sourceId" : "",
                "startColumn" : 46,
                "startLine" : 7541
              }
            }, {
              "_type" : "func",
              "function" : "isEmpty",
              "parameters" : [ {
                "_type" : "property",
                "parameters" : [ {
                  "_type" : "var",
                  "name" : "this",
                  "sourceInformation" : {
                    "endColumn" : 66,
                    "endLine" : 7541,
                    "sourceId" : "",
                    "startColumn" : 62,
                    "startLine" : 7541
                  }
                } ],
                "property" : "fixedRate",
                "sourceInformation" : {
                  "endColumn" : 76,
                  "endLine" : 7541,
                  "sourceId" : "",
                  "startColumn" : 68,
                  "startLine" : 7541
                }
              } ],
              "sourceInformation" : {
                "endColumn" : 85,
                "endLine" : 7541,
                "sourceId" : "",
                "startColumn" : 79,
                "startLine" : 7541
              }
            } ],
            "sourceInformation" : {
              "endColumn" : 60,
              "endLine" : 7541,
              "sourceId" : "",
              "startColumn" : 59,
              "startLine" : 7541
            }
          }, {
            "_type" : "func",
            "function" : "and",
            "parameters" : [ {
              "_type" : "func",
              "function" : "isEmpty",
              "parameters" : [ {
                "_type" : "property",
                "parameters" : [ {
                  "_type" : "var",
                  "name" : "this",
                  "sourceInformation" : {
                    "endColumn" : 98,
                    "endLine" : 7541,
                    "sourceId" : "",
                    "startColumn" : 94,
                    "startLine" : 7541
                  }
                } ],
                "property" : "floatingRateCalculation",
                "sourceInformation" : {
                  "endColumn" : 122,
                  "endLine" : 7541,
                  "sourceId" : "",
                  "startColumn" : 100,
                  "startLine" : 7541
                }
              } ],
              "sourceInformation" : {
                "endColumn" : 131,
                "endLine" : 7541,
                "sourceId" : "",
                "startColumn" : 125,
                "startLine" : 7541
              }
            }, {
              "_type" : "func",
              "function" : "isNotEmpty",
              "parameters" : [ {
                "_type" : "property",
                "parameters" : [ {
                  "_type" : "var",
                  "name" : "this",
                  "sourceInformation" : {
                    "endColumn" : 142,
                    "endLine" : 7541,
                    "sourceId" : "",
                    "startColumn" : 138,
                    "startLine" : 7541
                  }
                } ],
                "property" : "fixedRate",
                "sourceInformation" : {
                  "endColumn" : 152,
                  "endLine" : 7541,
                  "sourceId" : "",
                  "startColumn" : 144,
                  "startLine" : 7541
                }
              } ],
              "sourceInformation" : {
                "endColumn" : 164,
                "endLine" : 7541,
                "sourceId" : "",
                "startColumn" : 155,
                "startLine" : 7541
              }
            } ],
            "sourceInformation" : {
              "endColumn" : 136,
              "endLine" : 7541,
              "sourceId" : "",
              "startColumn" : 135,
              "startLine" : 7541
            }
          } ],
          "sourceInformation" : {
            "endColumn" : 91,
            "endLine" : 7541,
            "sourceId" : "",
            "startColumn" : 90,
            "startLine" : 7541
          }
        } ],
        "parameters" : [ ]
      },
      "name" : "c1_choice"
    } ],
    "name" : "InterestAccrualsMethod",
    "package" : "FpML::model",
    "properties" : [ {
      "multiplicity" : {
        "lowerBound" : 0,
        "upperBound" : 1
      },
      "name" : "floatingRateCalculation",
      "taggedValues" : [ {
        "tag" : {
          "profile" : "meta::pure::profiles::doc",
          "value" : "doc"
        },
        "value" : "The floating rate calculation definitions"
      } ],
      "type" : "FpML::model::FloatingRateCalculation"
    }, {
      "multiplicity" : {
        "lowerBound" : 0,
        "upperBound" : 1
      },
      "name" : "fixedRate",
      "taggedValues" : [ {
        "tag" : {
          "profile" : "meta::pure::profiles::doc",
          "value" : "doc"
        },
        "value" : "The calculation period fixed rate. A per annum rate, expressed as a decimal. A fixed rate of 5% would be represented as 0.05."
      } ],
      "type" : "Decimal"
    } ],
    "taggedValues" : [ {
      "tag" : {
        "profile" : "meta::pure::profiles::doc",
        "value" : "doc"
      },
      "value" : "A type describing the method for accruing interests on dividends. Can be either a fixed rate reference or a floating rate reference."
    } ]
  }
}