{
  "classifierPath" : "meta::pure::metamodel::type::Enumeration",
  "content" : {
    "_type" : "Enumeration",
    "name" : "LimitModelEnum",
    "package" : "FpML::model",
    "taggedValues" : [ {
      "tag" : {
        "profile" : "meta::pure::profiles::doc",
        "value" : "doc"
      },
      "value" : "The type of credit approval request."
    } ],
    "values" : [ {
      "value" : "Ping"
    }, {
      "value" : "Plus1ToStop"
    }, {
      "value" : "Plus1ToPing"
    }, {
      "value" : "PushToPing"
    }, {
      "value" : "PushToStop"
    } ]
  }
}