{
  "classifierPath" : "meta::pure::metamodel::type::Class",
  "content" : {
    "_type" : "class",
    "constraints" : [ {
      "functionDefinition" : {
        "_type" : "lambda",
        "body" : [ {
          "_type" : "func",
          "function" : "forAll",
          "parameters" : [ {
            "_type" : "property",
            "parameters" : [ {
              "_type" : "var",
              "name" : "this",
              "sourceInformation" : {
                "endColumn" : 18,
                "endLine" : 7849,
                "sourceId" : "",
                "startColumn" : 14,
                "startLine" : 7849
              }
            } ],
            "property" : "issuerName",
            "sourceInformation" : {
              "endColumn" : 29,
              "endLine" : 7849,
              "sourceId" : "",
              "startColumn" : 20,
              "startLine" : 7849
            }
          }, {
            "_type" : "lambda",
            "body" : [ {
              "_type" : "func",
              "function" : "greaterThanEqual",
              "parameters" : [ {
                "_type" : "func",
                "function" : "length",
                "parameters" : [ {
                  "_type" : "var",
                  "name" : "x",
                  "sourceInformation" : {
                    "endColumn" : 53,
                    "endLine" : 7849,
                    "sourceId" : "",
                    "startColumn" : 52,
                    "startLine" : 7849
                  }
                } ],
                "sourceInformation" : {
                  "endColumn" : 61,
                  "endLine" : 7849,
                  "sourceId" : "",
                  "startColumn" : 56,
                  "startLine" : 7849
                }
              }, {
                "_type" : "integer",
                "multiplicity" : {
                  "lowerBound" : 1,
                  "upperBound" : 1
                },
                "sourceInformation" : {
                  "endColumn" : 68,
                  "endLine" : 7849,
                  "sourceId" : "",
                  "startColumn" : 68,
                  "startLine" : 7849
                },
                "values" : [ 1 ]
              } ],
              "sourceInformation" : {
                "endColumn" : 68,
                "endLine" : 7849,
                "sourceId" : "",
                "startColumn" : 65,
                "startLine" : 7849
              }
            } ],
            "parameters" : [ {
              "_type" : "var",
              "class" : "String",
              "multiplicity" : {
                "lowerBound" : 1,
                "upperBound" : 1
              },
              "name" : "x",
              "sourceInformation" : {
                "endColumn" : 47,
                "endLine" : 7849,
                "sourceId" : "",
                "startColumn" : 42,
                "startLine" : 7849
              }
            } ],
            "sourceInformation" : {
              "endColumn" : 68,
              "endLine" : 7849,
              "sourceId" : "",
              "startColumn" : 51,
              "startLine" : 7849
            }
          } ],
          "sourceInformation" : {
            "endColumn" : 37,
            "endLine" : 7849,
            "sourceId" : "",
            "startColumn" : 32,
            "startLine" : 7849
          }
        } ],
        "parameters" : [ ]
      },
      "name" : "c1_length"
    }, {
      "functionDefinition" : {
        "_type" : "lambda",
        "body" : [ {
          "_type" : "func",
          "function" : "forAll",
          "parameters" : [ {
            "_type" : "property",
            "parameters" : [ {
              "_type" : "var",
              "name" : "this",
              "sourceInformation" : {
                "endColumn" : 18,
                "endLine" : 7850,
                "sourceId" : "",
                "startColumn" : 14,
                "startLine" : 7850
              }
            } ],
            "property" : "tranche",
            "sourceInformation" : {
              "endColumn" : 26,
              "endLine" : 7850,
              "sourceId" : "",
              "startColumn" : 20,
              "startLine" : 7850
            }
          }, {
            "_type" : "lambda",
            "body" : [ {
              "_type" : "func",
              "function" : "greaterThanEqual",
              "parameters" : [ {
                "_type" : "func",
                "function" : "length",
                "parameters" : [ {
                  "_type" : "var",
                  "name" : "x",
                  "sourceInformation" : {
                    "endColumn" : 50,
                    "endLine" : 7850,
                    "sourceId" : "",
                    "startColumn" : 49,
                    "startLine" : 7850
                  }
                } ],
                "sourceInformation" : {
                  "endColumn" : 58,
                  "endLine" : 7850,
                  "sourceId" : "",
                  "startColumn" : 53,
                  "startLine" : 7850
                }
              }, {
                "_type" : "integer",
                "multiplicity" : {
                  "lowerBound" : 1,
                  "upperBound" : 1
                },
                "sourceInformation" : {
                  "endColumn" : 65,
                  "endLine" : 7850,
                  "sourceId" : "",
                  "startColumn" : 65,
                  "startLine" : 7850
                },
                "values" : [ 0 ]
              } ],
              "sourceInformation" : {
                "endColumn" : 65,
                "endLine" : 7850,
                "sourceId" : "",
                "startColumn" : 62,
                "startLine" : 7850
              }
            } ],
            "parameters" : [ {
              "_type" : "var",
              "class" : "String",
              "multiplicity" : {
                "lowerBound" : 1,
                "upperBound" : 1
              },
              "name" : "x",
              "sourceInformation" : {
                "endColumn" : 44,
                "endLine" : 7850,
                "sourceId" : "",
                "startColumn" : 39,
                "startLine" : 7850
              }
            } ],
            "sourceInformation" : {
              "endColumn" : 65,
              "endLine" : 7850,
              "sourceId" : "",
              "startColumn" : 48,
              "startLine" : 7850
            }
          } ],
          "sourceInformation" : {
            "endColumn" : 34,
            "endLine" : 7850,
            "sourceId" : "",
            "startColumn" : 29,
            "startLine" : 7850
          }
        } ],
        "parameters" : [ ]
      },
      "name" : "c2_length"
    } ],
    "name" : "Mortgage",
    "package" : "FpML::model",
    "properties" : [ {
      "multiplicity" : {
        "lowerBound" : 0,
        "upperBound" : 1
      },
      "name" : "insurer",
      "type" : "FpML::model::LegalEntity"
    }, {
      "multiplicity" : {
        "lowerBound" : 0,
        "upperBound" : 1
      },
      "name" : "insurerReference",
      "type" : "FpML::model::LegalEntityReference"
    }, {
      "multiplicity" : {
        "lowerBound" : 0,
        "upperBound" : 1
      },
      "name" : "issuerName",
      "type" : "String"
    }, {
      "multiplicity" : {
        "lowerBound" : 0,
        "upperBound" : 1
      },
      "name" : "issuerPartyReference",
      "type" : "FpML::model::PartyReference"
    }, {
      "multiplicity" : {
        "lowerBound" : 0,
        "upperBound" : 1
      },
      "name" : "seniority",
      "taggedValues" : [ {
        "tag" : {
          "profile" : "meta::pure::profiles::doc",
          "value" : "doc"
        },
        "value" : "The repayment precedence of a debt instrument."
      } ],
      "type" : "FpML::model::CreditSeniority"
    }, {
      "multiplicity" : {
        "lowerBound" : 0
      },
      "name" : "creditQuality",
      "taggedValues" : [ {
        "tag" : {
          "profile" : "meta::pure::profiles::doc",
          "value" : "doc"
        },
        "value" : "Credit quality type (e.g. 'INVG' - Investment grade; 'NIVG' - Non-investment grade; 'NOTR' - Non-rated). Classifies the risk of the security. Note: 'NOAP' - Not applicable value is indicated by the absence of the 'creditQuality' element."
      } ],
      "type" : "FpML::model::CreditQuality"
    }, {
      "multiplicity" : {
        "lowerBound" : 0
      },
      "name" : "creditRating",
      "taggedValues" : [ {
        "tag" : {
          "profile" : "meta::pure::profiles::doc",
          "value" : "doc"
        },
        "value" : "The credit rating."
      } ],
      "type" : "FpML::model::CreditRating"
    }, {
      "multiplicity" : {
        "lowerBound" : 0,
        "upperBound" : 1
      },
      "name" : "couponType",
      "taggedValues" : [ {
        "tag" : {
          "profile" : "meta::pure::profiles::doc",
          "value" : "doc"
        },
        "value" : "Specifies if the bond has a variable coupon, step-up/down coupon or a zero-coupon."
      } ],
      "type" : "FpML::model::CouponType"
    }, {
      "multiplicity" : {
        "lowerBound" : 0,
        "upperBound" : 1
      },
      "name" : "couponRate",
      "taggedValues" : [ {
        "tag" : {
          "profile" : "meta::pure::profiles::doc",
          "value" : "doc"
        },
        "value" : "Specifies the coupon rate (expressed in percentage) of a fixed income security or convertible bond."
      } ],
      "type" : "Decimal"
    }, {
      "multiplicity" : {
        "lowerBound" : 0,
        "upperBound" : 1
      },
      "name" : "maturity",
      "taggedValues" : [ {
        "tag" : {
          "profile" : "meta::pure::profiles::doc",
          "value" : "doc"
        },
        "value" : "The date when the principal amount of a security becomes due and payable."
      } ],
      "type" : "StrictDate"
    }, {
      "multiplicity" : {
        "lowerBound" : 0,
        "upperBound" : 1
      },
      "name" : "paymentFrequency",
      "taggedValues" : [ {
        "tag" : {
          "profile" : "meta::pure::profiles::doc",
          "value" : "doc"
        },
        "value" : "Specifies the frequency at which the bond pays, e.g. 6M."
      } ],
      "type" : "FpML::model::Frequency"
    }, {
      "multiplicity" : {
        "lowerBound" : 0,
        "upperBound" : 1
      },
      "name" : "dayCountFraction",
      "taggedValues" : [ {
        "tag" : {
          "profile" : "meta::pure::profiles::doc",
          "value" : "doc"
        },
        "value" : "The day count basis for the bond."
      } ],
      "type" : "FpML::model::DayCountFraction"
    }, {
      "multiplicity" : {
        "lowerBound" : 0,
        "upperBound" : 1
      },
      "name" : "originalPrincipalAmount",
      "taggedValues" : [ {
        "tag" : {
          "profile" : "meta::pure::profiles::doc",
          "value" : "doc"
        },
        "value" : "The initial issued amount of the mortgage obligation."
      } ],
      "type" : "Decimal"
    }, {
      "multiplicity" : {
        "lowerBound" : 0,
        "upperBound" : 1
      },
      "name" : "pool",
      "taggedValues" : [ {
        "tag" : {
          "profile" : "meta::pure::profiles::doc",
          "value" : "doc"
        },
        "value" : "The morgage pool that is underneath the mortgage obligation."
      } ],
      "type" : "FpML::model::AssetPool"
    }, {
      "multiplicity" : {
        "lowerBound" : 0,
        "upperBound" : 1
      },
      "name" : "sector",
      "taggedValues" : [ {
        "tag" : {
          "profile" : "meta::pure::profiles::doc",
          "value" : "doc"
        },
        "value" : "The sector classification of the mortgage obligation."
      } ],
      "type" : "FpML::model::MortgageSector"
    }, {
      "multiplicity" : {
        "lowerBound" : 0,
        "upperBound" : 1
      },
      "name" : "tranche",
      "taggedValues" : [ {
        "tag" : {
          "profile" : "meta::pure::profiles::doc",
          "value" : "doc"
        },
        "value" : "The mortgage obligation tranche that is subject to the derivative transaction."
      } ],
      "type" : "String"
    } ],
    "superTypes" : [ "FpML::model::UnderlyingAsset" ],
    "taggedValues" : [ {
      "tag" : {
        "profile" : "meta::pure::profiles::doc",
        "value" : "doc"
      },
      "value" : "A type describing a mortgage asset."
    } ]
  }
}