{
  "classifierPath" : "meta::pure::metamodel::type::Class",
  "content" : {
    "_type" : "class",
    "constraints" : [ {
      "functionDefinition" : {
        "_type" : "lambda",
        "body" : [ {
          "_type" : "func",
          "function" : "forAll",
          "parameters" : [ {
            "_type" : "property",
            "parameters" : [ {
              "_type" : "var",
              "name" : "this",
              "sourceInformation" : {
                "endColumn" : 17,
                "endLine" : 7928,
                "sourceId" : "",
                "startColumn" : 13,
                "startLine" : 7928
              }
            } ],
            "property" : "amount",
            "sourceInformation" : {
              "endColumn" : 24,
              "endLine" : 7928,
              "sourceId" : "",
              "startColumn" : 19,
              "startLine" : 7928
            }
          }, {
            "_type" : "lambda",
            "body" : [ {
              "_type" : "func",
              "function" : "greaterThanEqual",
              "parameters" : [ {
                "_type" : "var",
                "name" : "x",
                "sourceInformation" : {
                  "endColumn" : 49,
                  "endLine" : 7928,
                  "sourceId" : "",
                  "startColumn" : 48,
                  "startLine" : 7928
                }
              }, {
                "_type" : "integer",
                "multiplicity" : {
                  "lowerBound" : 1,
                  "upperBound" : 1
                },
                "sourceInformation" : {
                  "endColumn" : 54,
                  "endLine" : 7928,
                  "sourceId" : "",
                  "startColumn" : 54,
                  "startLine" : 7928
                },
                "values" : [ 0 ]
              } ],
              "sourceInformation" : {
                "endColumn" : 54,
                "endLine" : 7928,
                "sourceId" : "",
                "startColumn" : 51,
                "startLine" : 7928
              }
            } ],
            "parameters" : [ {
              "_type" : "var",
              "class" : "Decimal",
              "multiplicity" : {
                "lowerBound" : 1,
                "upperBound" : 1
              },
              "name" : "x",
              "sourceInformation" : {
                "endColumn" : 43,
                "endLine" : 7928,
                "sourceId" : "",
                "startColumn" : 37,
                "startLine" : 7928
              }
            } ],
            "sourceInformation" : {
              "endColumn" : 54,
              "endLine" : 7928,
              "sourceId" : "",
              "startColumn" : 47,
              "startLine" : 7928
            }
          } ],
          "sourceInformation" : {
            "endColumn" : 32,
            "endLine" : 7928,
            "sourceId" : "",
            "startColumn" : 27,
            "startLine" : 7928
          }
        } ],
        "parameters" : [ ]
      },
      "name" : "c1_range"
    } ],
    "name" : "NonNegativeMoney",
    "package" : "FpML::model",
    "properties" : [ {
      "multiplicity" : {
        "lowerBound" : 0,
        "upperBound" : 1
      },
      "name" : "amount",
      "taggedValues" : [ {
        "tag" : {
          "profile" : "meta::pure::profiles::doc",
          "value" : "doc"
        },
        "value" : "The non negative monetary quantity in currency units."
      } ],
      "type" : "Decimal"
    } ],
    "superTypes" : [ "FpML::model::MoneyBase" ],
    "taggedValues" : [ {
      "tag" : {
        "profile" : "meta::pure::profiles::doc",
        "value" : "doc"
      },
      "value" : "A type defining a non negative money amount."
    } ]
  }
}