{
  "classifierPath" : "meta::pure::metamodel::type::Class",
  "content" : {
    "_type" : "class",
    "constraints" : [ {
      "functionDefinition" : {
        "_type" : "lambda",
        "body" : [ {
          "_type" : "func",
          "function" : "forAll",
          "parameters" : [ {
            "_type" : "property",
            "parameters" : [ {
              "_type" : "var",
              "name" : "this",
              "sourceInformation" : {
                "endColumn" : 17,
                "endLine" : 7941,
                "sourceId" : "",
                "startColumn" : 13,
                "startLine" : 7941
              }
            } ],
            "property" : "initialValue",
            "sourceInformation" : {
              "endColumn" : 30,
              "endLine" : 7941,
              "sourceId" : "",
              "startColumn" : 19,
              "startLine" : 7941
            }
          }, {
            "_type" : "lambda",
            "body" : [ {
              "_type" : "func",
              "function" : "greaterThanEqual",
              "parameters" : [ {
                "_type" : "var",
                "name" : "x",
                "sourceInformation" : {
                  "endColumn" : 55,
                  "endLine" : 7941,
                  "sourceId" : "",
                  "startColumn" : 54,
                  "startLine" : 7941
                }
              }, {
                "_type" : "integer",
                "multiplicity" : {
                  "lowerBound" : 1,
                  "upperBound" : 1
                },
                "sourceInformation" : {
                  "endColumn" : 60,
                  "endLine" : 7941,
                  "sourceId" : "",
                  "startColumn" : 60,
                  "startLine" : 7941
                },
                "values" : [ 0 ]
              } ],
              "sourceInformation" : {
                "endColumn" : 60,
                "endLine" : 7941,
                "sourceId" : "",
                "startColumn" : 57,
                "startLine" : 7941
              }
            } ],
            "parameters" : [ {
              "_type" : "var",
              "class" : "Decimal",
              "multiplicity" : {
                "lowerBound" : 1,
                "upperBound" : 1
              },
              "name" : "x",
              "sourceInformation" : {
                "endColumn" : 49,
                "endLine" : 7941,
                "sourceId" : "",
                "startColumn" : 43,
                "startLine" : 7941
              }
            } ],
            "sourceInformation" : {
              "endColumn" : 60,
              "endLine" : 7941,
              "sourceId" : "",
              "startColumn" : 53,
              "startLine" : 7941
            }
          } ],
          "sourceInformation" : {
            "endColumn" : 38,
            "endLine" : 7941,
            "sourceId" : "",
            "startColumn" : 33,
            "startLine" : 7941
          }
        } ],
        "parameters" : [ ]
      },
      "name" : "c1_range"
    } ],
    "name" : "NonNegativeSchedule",
    "package" : "FpML::model",
    "properties" : [ {
      "multiplicity" : {
        "lowerBound" : 0,
        "upperBound" : 1
      },
      "name" : "initialValue",
      "taggedValues" : [ {
        "tag" : {
          "profile" : "meta::pure::profiles::doc",
          "value" : "doc"
        },
        "value" : "The non-negative initial rate or amount, as the case may be. An initial rate of 5% would be represented as 0.05."
      } ],
      "type" : "Decimal"
    }, {
      "multiplicity" : {
        "lowerBound" : 0
      },
      "name" : "step",
      "taggedValues" : [ {
        "tag" : {
          "profile" : "meta::pure::profiles::doc",
          "value" : "doc"
        },
        "value" : "The schedule of step date and non-negative value pairs. On each step date the associated step value becomes effective. A list of steps may be ordered in the document by ascending step date. An FpML document containing an unordered list of steps is still regarded as a conformant document."
      } ],
      "type" : "FpML::model::NonNegativeStep"
    }, {
      "multiplicity" : {
        "lowerBound" : 0,
        "upperBound" : 1
      },
      "name" : "id",
      "type" : "String"
    } ],
    "taggedValues" : [ {
      "tag" : {
        "profile" : "meta::pure::profiles::doc",
        "value" : "doc"
      },
      "value" : "A type defining a schedule of non-negative rates or amounts in terms of an initial value and then a series of step date and value pairs. On each step date the rate or amount changes to the new step value. The series of step date and value pairs are optional. If not specified, this implies that the initial value remains unchanged over time."
    } ]
  }
}