{
  "classifierPath" : "meta::pure::metamodel::type::Class",
  "content" : {
    "_type" : "class",
    "name" : "Payment",
    "package" : "FpML::model",
    "properties" : [ {
      "multiplicity" : {
        "lowerBound" : 0,
        "upperBound" : 1
      },
      "name" : "payerPartyReference",
      "taggedValues" : [ {
        "tag" : {
          "profile" : "meta::pure::profiles::doc",
          "value" : "doc"
        },
        "value" : "A reference to the party responsible for making the payments defined by this structure."
      } ],
      "type" : "FpML::model::PartyReference"
    }, {
      "multiplicity" : {
        "lowerBound" : 0,
        "upperBound" : 1
      },
      "name" : "payerAccountReference",
      "taggedValues" : [ {
        "tag" : {
          "profile" : "meta::pure::profiles::doc",
          "value" : "doc"
        },
        "value" : "A reference to the account responsible for making the payments defined by this structure."
      } ],
      "type" : "FpML::model::AccountReference"
    }, {
      "multiplicity" : {
        "lowerBound" : 0,
        "upperBound" : 1
      },
      "name" : "receiverPartyReference",
      "taggedValues" : [ {
        "tag" : {
          "profile" : "meta::pure::profiles::doc",
          "value" : "doc"
        },
        "value" : "A reference to the party that receives the payments corresponding to this structure."
      } ],
      "type" : "FpML::model::PartyReference"
    }, {
      "multiplicity" : {
        "lowerBound" : 0,
        "upperBound" : 1
      },
      "name" : "receiverAccountReference",
      "taggedValues" : [ {
        "tag" : {
          "profile" : "meta::pure::profiles::doc",
          "value" : "doc"
        },
        "value" : "A reference to the account that receives the payments corresponding to this structure."
      } ],
      "type" : "FpML::model::AccountReference"
    }, {
      "multiplicity" : {
        "lowerBound" : 0,
        "upperBound" : 1
      },
      "name" : "paymentAmount",
      "taggedValues" : [ {
        "tag" : {
          "profile" : "meta::pure::profiles::doc",
          "value" : "doc"
        },
        "value" : "The currency amount of the payment."
      } ],
      "type" : "FpML::model::NonNegativeMoney"
    }, {
      "multiplicity" : {
        "lowerBound" : 0,
        "upperBound" : 1
      },
      "name" : "paymentDate",
      "taggedValues" : [ {
        "tag" : {
          "profile" : "meta::pure::profiles::doc",
          "value" : "doc"
        },
        "value" : "The payment date. This date is subject to adjustment in accordance with any applicable business day convention."
      } ],
      "type" : "FpML::model::AdjustableOrAdjustedDate"
    }, {
      "multiplicity" : {
        "lowerBound" : 0,
        "upperBound" : 1
      },
      "name" : "paymentType",
      "taggedValues" : [ {
        "tag" : {
          "profile" : "meta::pure::profiles::doc",
          "value" : "doc"
        },
        "value" : "A classification of the type of fee or additional payment, e.g. brokerage, upfront fee etc. FpML does not define domain values for this element."
      } ],
      "type" : "FpML::model::PaymentType"
    }, {
      "multiplicity" : {
        "lowerBound" : 0,
        "upperBound" : 1
      },
      "name" : "settlementInformation",
      "taggedValues" : [ {
        "tag" : {
          "profile" : "meta::pure::profiles::doc",
          "value" : "doc"
        },
        "value" : "The information required to settle a currency payment that results from a trade."
      } ],
      "type" : "FpML::model::SettlementInformation"
    }, {
      "multiplicity" : {
        "lowerBound" : 0,
        "upperBound" : 1
      },
      "name" : "discountFactor",
      "taggedValues" : [ {
        "tag" : {
          "profile" : "meta::pure::profiles::doc",
          "value" : "doc"
        },
        "value" : "The value representing the discount factor used to calculate the present value of the cash flow."
      } ],
      "type" : "Decimal"
    }, {
      "multiplicity" : {
        "lowerBound" : 0,
        "upperBound" : 1
      },
      "name" : "presentValueAmount",
      "taggedValues" : [ {
        "tag" : {
          "profile" : "meta::pure::profiles::doc",
          "value" : "doc"
        },
        "value" : "The amount representing the present value of the forecast payment."
      } ],
      "type" : "FpML::model::Money"
    }, {
      "multiplicity" : {
        "lowerBound" : 0,
        "upperBound" : 1
      },
      "name" : "href",
      "taggedValues" : [ {
        "tag" : {
          "profile" : "meta::pure::profiles::doc",
          "value" : "doc"
        },
        "value" : "Can be used to reference the yield curve used to estimate the discount factor."
      } ],
      "type" : "String"
    } ],
    "superTypes" : [ "FpML::model::PaymentBase" ],
    "taggedValues" : [ {
      "tag" : {
        "profile" : "meta::pure::profiles::doc",
        "value" : "doc"
      },
      "value" : "A type for defining payments. Developers of FpML models are encouraged to make use of the SimplePayment type instead of this Payment type. In Transparency view, normally the payer and receiver party references are not used; however they may be provided if necessary for administrative activities such as Reporting Party Determination in FX."
    } ]
  }
}