{
  "classifierPath" : "meta::pure::metamodel::type::Enumeration",
  "content" : {
    "_type" : "Enumeration",
    "name" : "PremiumQuoteBasisEnum",
    "package" : "FpML::model",
    "taggedValues" : [ {
      "tag" : {
        "profile" : "meta::pure::profiles::doc",
        "value" : "doc"
      },
      "value" : "The specification of how the premium for an FX OTC option is quoted."
    } ],
    "values" : [ {
      "value" : "PercentageOfCallCurrencyAmount"
    }, {
      "value" : "PercentageOfPutCurrencyAmount"
    }, {
      "value" : "CallCurrencyPerPutCurrency"
    }, {
      "value" : "PutCurrencyPerCallCurrency"
    }, {
      "value" : "Explicit"
    } ]
  }
}