{
  "classifierPath" : "meta::pure::metamodel::type::Class",
  "content" : {
    "_type" : "class",
    "name" : "ProtectionTerms",
    "package" : "FpML::model",
    "properties" : [ {
      "multiplicity" : {
        "lowerBound" : 0,
        "upperBound" : 1
      },
      "name" : "calculationAmount",
      "taggedValues" : [ {
        "tag" : {
          "profile" : "meta::pure::profiles::doc",
          "value" : "doc"
        },
        "value" : "The notional amount of protection coverage. ISDA 2003 Term: Floating Rate Payer Calculation Amount"
      } ],
      "type" : "FpML::model::Money"
    }, {
      "multiplicity" : {
        "lowerBound" : 0,
        "upperBound" : 1
      },
      "name" : "creditEvents",
      "taggedValues" : [ {
        "tag" : {
          "profile" : "meta::pure::profiles::doc",
          "value" : "doc"
        },
        "value" : "This element contains all the ISDA terms relating to credit events."
      } ],
      "type" : "FpML::model::CreditEvents"
    }, {
      "multiplicity" : {
        "lowerBound" : 0,
        "upperBound" : 1
      },
      "name" : "obligations",
      "taggedValues" : [ {
        "tag" : {
          "profile" : "meta::pure::profiles::doc",
          "value" : "doc"
        },
        "value" : "The underlying obligations of the reference entity on which you are buying or selling protection. The credit events Failure to Pay, Obligation Acceleration, Obligation Default, Restructuring, Repudiation/Moratorium are defined with respect to these obligations. ISDA 2003 Term:"
      } ],
      "type" : "FpML::model::Obligations"
    }, {
      "multiplicity" : {
        "lowerBound" : 0,
        "upperBound" : 1
      },
      "name" : "floatingAmountEvents",
      "taggedValues" : [ {
        "tag" : {
          "profile" : "meta::pure::profiles::doc",
          "value" : "doc"
        },
        "value" : "This element contains the ISDA terms relating to the floating rate payment events and the implied additional fixed payments, applicable to the credit derivatives transactions on mortgage-backed securities with pay-as-you-go or physical settlement."
      } ],
      "type" : "FpML::model::FloatingAmountEvents"
    }, {
      "multiplicity" : {
        "lowerBound" : 0,
        "upperBound" : 1
      },
      "name" : "id",
      "type" : "String"
    } ]
  }
}