{
  "classifierPath" : "meta::pure::metamodel::type::Class",
  "content" : {
    "_type" : "class",
    "name" : "ResetFrequency",
    "package" : "FpML::model",
    "properties" : [ {
      "multiplicity" : {
        "lowerBound" : 0,
        "upperBound" : 1
      },
      "name" : "weeklyRollConvention",
      "taggedValues" : [ {
        "tag" : {
          "profile" : "meta::pure::profiles::doc",
          "value" : "doc"
        },
        "value" : "The day of the week on which a weekly reset date occurs. This element must be included if the reset frequency is defined as weekly and not otherwise."
      } ],
      "type" : "FpML::model::WeeklyRollConventionEnum"
    } ],
    "superTypes" : [ "FpML::model::Frequency" ],
    "taggedValues" : [ {
      "tag" : {
        "profile" : "meta::pure::profiles::doc",
        "value" : "doc"
      },
      "value" : "A type defining the reset frequency. In the case of a weekly reset, also specifies the day of the week that the reset occurs. If the reset frequency is greater than the calculation period frequency the this implies that more or more reset dates is established for each calculation period and some form of rate averaginhg is applicable. The specific averaging method of calculation is specified in FloatingRateCalculation. In case the reset frequency is of value T (term), the period is defined by the swapswapStreamcalculationPerioDateseffectiveDate and the swapswapStreamcalculationPerioDates\terminationDate."
    } ]
  }
}