{
  "classifierPath" : "meta::pure::metamodel::type::Class",
  "content" : {
    "_type" : "class",
    "constraints" : [ {
      "functionDefinition" : {
        "_type" : "lambda",
        "body" : [ {
          "_type" : "func",
          "function" : "forAll",
          "parameters" : [ {
            "_type" : "property",
            "parameters" : [ {
              "_type" : "var",
              "name" : "this",
              "sourceInformation" : {
                "endColumn" : 18,
                "endLine" : 8942,
                "sourceId" : "",
                "startColumn" : 14,
                "startLine" : 8942
              }
            } ],
            "property" : "name",
            "sourceInformation" : {
              "endColumn" : 23,
              "endLine" : 8942,
              "sourceId" : "",
              "startColumn" : 20,
              "startLine" : 8942
            }
          }, {
            "_type" : "lambda",
            "body" : [ {
              "_type" : "func",
              "function" : "greaterThanEqual",
              "parameters" : [ {
                "_type" : "func",
                "function" : "length",
                "parameters" : [ {
                  "_type" : "var",
                  "name" : "x",
                  "sourceInformation" : {
                    "endColumn" : 47,
                    "endLine" : 8942,
                    "sourceId" : "",
                    "startColumn" : 46,
                    "startLine" : 8942
                  }
                } ],
                "sourceInformation" : {
                  "endColumn" : 55,
                  "endLine" : 8942,
                  "sourceId" : "",
                  "startColumn" : 50,
                  "startLine" : 8942
                }
              }, {
                "_type" : "integer",
                "multiplicity" : {
                  "lowerBound" : 1,
                  "upperBound" : 1
                },
                "sourceInformation" : {
                  "endColumn" : 62,
                  "endLine" : 8942,
                  "sourceId" : "",
                  "startColumn" : 62,
                  "startLine" : 8942
                },
                "values" : [ 1 ]
              } ],
              "sourceInformation" : {
                "endColumn" : 62,
                "endLine" : 8942,
                "sourceId" : "",
                "startColumn" : 59,
                "startLine" : 8942
              }
            } ],
            "parameters" : [ {
              "_type" : "var",
              "class" : "String",
              "multiplicity" : {
                "lowerBound" : 1,
                "upperBound" : 1
              },
              "name" : "x",
              "sourceInformation" : {
                "endColumn" : 41,
                "endLine" : 8942,
                "sourceId" : "",
                "startColumn" : 36,
                "startLine" : 8942
              }
            } ],
            "sourceInformation" : {
              "endColumn" : 62,
              "endLine" : 8942,
              "sourceId" : "",
              "startColumn" : 45,
              "startLine" : 8942
            }
          } ],
          "sourceInformation" : {
            "endColumn" : 31,
            "endLine" : 8942,
            "sourceId" : "",
            "startColumn" : 26,
            "startLine" : 8942
          }
        } ],
        "parameters" : [ ]
      },
      "name" : "c1_length"
    }, {
      "functionDefinition" : {
        "_type" : "lambda",
        "body" : [ {
          "_type" : "func",
          "function" : "forAll",
          "parameters" : [ {
            "_type" : "property",
            "parameters" : [ {
              "_type" : "var",
              "name" : "this",
              "sourceInformation" : {
                "endColumn" : 18,
                "endLine" : 8943,
                "sourceId" : "",
                "startColumn" : 14,
                "startLine" : 8943
              }
            } ],
            "property" : "comments",
            "sourceInformation" : {
              "endColumn" : 27,
              "endLine" : 8943,
              "sourceId" : "",
              "startColumn" : 20,
              "startLine" : 8943
            }
          }, {
            "_type" : "lambda",
            "body" : [ {
              "_type" : "func",
              "function" : "greaterThanEqual",
              "parameters" : [ {
                "_type" : "func",
                "function" : "length",
                "parameters" : [ {
                  "_type" : "var",
                  "name" : "x",
                  "sourceInformation" : {
                    "endColumn" : 51,
                    "endLine" : 8943,
                    "sourceId" : "",
                    "startColumn" : 50,
                    "startLine" : 8943
                  }
                } ],
                "sourceInformation" : {
                  "endColumn" : 59,
                  "endLine" : 8943,
                  "sourceId" : "",
                  "startColumn" : 54,
                  "startLine" : 8943
                }
              }, {
                "_type" : "integer",
                "multiplicity" : {
                  "lowerBound" : 1,
                  "upperBound" : 1
                },
                "sourceInformation" : {
                  "endColumn" : 66,
                  "endLine" : 8943,
                  "sourceId" : "",
                  "startColumn" : 66,
                  "startLine" : 8943
                },
                "values" : [ 1 ]
              } ],
              "sourceInformation" : {
                "endColumn" : 66,
                "endLine" : 8943,
                "sourceId" : "",
                "startColumn" : 63,
                "startLine" : 8943
              }
            } ],
            "parameters" : [ {
              "_type" : "var",
              "class" : "String",
              "multiplicity" : {
                "lowerBound" : 1,
                "upperBound" : 1
              },
              "name" : "x",
              "sourceInformation" : {
                "endColumn" : 45,
                "endLine" : 8943,
                "sourceId" : "",
                "startColumn" : 40,
                "startLine" : 8943
              }
            } ],
            "sourceInformation" : {
              "endColumn" : 66,
              "endLine" : 8943,
              "sourceId" : "",
              "startColumn" : 49,
              "startLine" : 8943
            }
          } ],
          "sourceInformation" : {
            "endColumn" : 35,
            "endLine" : 8943,
            "sourceId" : "",
            "startColumn" : 30,
            "startLine" : 8943
          }
        } ],
        "parameters" : [ ]
      },
      "name" : "c2_length"
    }, {
      "functionDefinition" : {
        "_type" : "lambda",
        "body" : [ {
          "_type" : "func",
          "function" : "forAll",
          "parameters" : [ {
            "_type" : "property",
            "parameters" : [ {
              "_type" : "var",
              "name" : "this",
              "sourceInformation" : {
                "endColumn" : 18,
                "endLine" : 8944,
                "sourceId" : "",
                "startColumn" : 14,
                "startLine" : 8944
              }
            } ],
            "property" : "string",
            "sourceInformation" : {
              "endColumn" : 25,
              "endLine" : 8944,
              "sourceId" : "",
              "startColumn" : 20,
              "startLine" : 8944
            }
          }, {
            "_type" : "lambda",
            "body" : [ {
              "_type" : "func",
              "function" : "greaterThanEqual",
              "parameters" : [ {
                "_type" : "func",
                "function" : "length",
                "parameters" : [ {
                  "_type" : "var",
                  "name" : "x",
                  "sourceInformation" : {
                    "endColumn" : 49,
                    "endLine" : 8944,
                    "sourceId" : "",
                    "startColumn" : 48,
                    "startLine" : 8944
                  }
                } ],
                "sourceInformation" : {
                  "endColumn" : 57,
                  "endLine" : 8944,
                  "sourceId" : "",
                  "startColumn" : 52,
                  "startLine" : 8944
                }
              }, {
                "_type" : "integer",
                "multiplicity" : {
                  "lowerBound" : 1,
                  "upperBound" : 1
                },
                "sourceInformation" : {
                  "endColumn" : 64,
                  "endLine" : 8944,
                  "sourceId" : "",
                  "startColumn" : 64,
                  "startLine" : 8944
                },
                "values" : [ 1 ]
              } ],
              "sourceInformation" : {
                "endColumn" : 64,
                "endLine" : 8944,
                "sourceId" : "",
                "startColumn" : 61,
                "startLine" : 8944
              }
            } ],
            "parameters" : [ {
              "_type" : "var",
              "class" : "String",
              "multiplicity" : {
                "lowerBound" : 1,
                "upperBound" : 1
              },
              "name" : "x",
              "sourceInformation" : {
                "endColumn" : 43,
                "endLine" : 8944,
                "sourceId" : "",
                "startColumn" : 38,
                "startLine" : 8944
              }
            } ],
            "sourceInformation" : {
              "endColumn" : 64,
              "endLine" : 8944,
              "sourceId" : "",
              "startColumn" : 47,
              "startLine" : 8944
            }
          } ],
          "sourceInformation" : {
            "endColumn" : 33,
            "endLine" : 8944,
            "sourceId" : "",
            "startColumn" : 28,
            "startLine" : 8944
          }
        } ],
        "parameters" : [ ]
      },
      "name" : "c3_length"
    }, {
      "functionDefinition" : {
        "_type" : "lambda",
        "body" : [ {
          "_type" : "func",
          "function" : "forAll",
          "parameters" : [ {
            "_type" : "property",
            "parameters" : [ {
              "_type" : "var",
              "name" : "this",
              "sourceInformation" : {
                "endColumn" : 18,
                "endLine" : 8945,
                "sourceId" : "",
                "startColumn" : 14,
                "startLine" : 8945
              }
            } ],
            "property" : "url",
            "sourceInformation" : {
              "endColumn" : 22,
              "endLine" : 8945,
              "sourceId" : "",
              "startColumn" : 20,
              "startLine" : 8945
            }
          }, {
            "_type" : "lambda",
            "body" : [ {
              "_type" : "func",
              "function" : "greaterThanEqual",
              "parameters" : [ {
                "_type" : "func",
                "function" : "length",
                "parameters" : [ {
                  "_type" : "var",
                  "name" : "x",
                  "sourceInformation" : {
                    "endColumn" : 46,
                    "endLine" : 8945,
                    "sourceId" : "",
                    "startColumn" : 45,
                    "startLine" : 8945
                  }
                } ],
                "sourceInformation" : {
                  "endColumn" : 54,
                  "endLine" : 8945,
                  "sourceId" : "",
                  "startColumn" : 49,
                  "startLine" : 8945
                }
              }, {
                "_type" : "integer",
                "multiplicity" : {
                  "lowerBound" : 1,
                  "upperBound" : 1
                },
                "sourceInformation" : {
                  "endColumn" : 61,
                  "endLine" : 8945,
                  "sourceId" : "",
                  "startColumn" : 61,
                  "startLine" : 8945
                },
                "values" : [ 1 ]
              } ],
              "sourceInformation" : {
                "endColumn" : 61,
                "endLine" : 8945,
                "sourceId" : "",
                "startColumn" : 58,
                "startLine" : 8945
              }
            } ],
            "parameters" : [ {
              "_type" : "var",
              "class" : "String",
              "multiplicity" : {
                "lowerBound" : 1,
                "upperBound" : 1
              },
              "name" : "x",
              "sourceInformation" : {
                "endColumn" : 40,
                "endLine" : 8945,
                "sourceId" : "",
                "startColumn" : 35,
                "startLine" : 8945
              }
            } ],
            "sourceInformation" : {
              "endColumn" : 61,
              "endLine" : 8945,
              "sourceId" : "",
              "startColumn" : 44,
              "startLine" : 8945
            }
          } ],
          "sourceInformation" : {
            "endColumn" : 30,
            "endLine" : 8945,
            "sourceId" : "",
            "startColumn" : 25,
            "startLine" : 8945
          }
        } ],
        "parameters" : [ ]
      },
      "name" : "c4_length"
    }, {
      "functionDefinition" : {
        "_type" : "lambda",
        "body" : [ {
          "_type" : "func",
          "function" : "or",
          "parameters" : [ {
            "_type" : "func",
            "function" : "and",
            "parameters" : [ {
              "_type" : "func",
              "function" : "isNotEmpty",
              "parameters" : [ {
                "_type" : "property",
                "parameters" : [ {
                  "_type" : "var",
                  "name" : "this",
                  "sourceInformation" : {
                    "endColumn" : 19,
                    "endLine" : 8946,
                    "sourceId" : "",
                    "startColumn" : 15,
                    "startLine" : 8946
                  }
                } ],
                "property" : "string",
                "sourceInformation" : {
                  "endColumn" : 26,
                  "endLine" : 8946,
                  "sourceId" : "",
                  "startColumn" : 21,
                  "startLine" : 8946
                }
              } ],
              "sourceInformation" : {
                "endColumn" : 38,
                "endLine" : 8946,
                "sourceId" : "",
                "startColumn" : 29,
                "startLine" : 8946
              }
            }, {
              "_type" : "func",
              "function" : "and",
              "parameters" : [ {
                "_type" : "func",
                "function" : "isEmpty",
                "parameters" : [ {
                  "_type" : "property",
                  "parameters" : [ {
                    "_type" : "var",
                    "name" : "this",
                    "sourceInformation" : {
                      "endColumn" : 50,
                      "endLine" : 8946,
                      "sourceId" : "",
                      "startColumn" : 46,
                      "startLine" : 8946
                    }
                  } ],
                  "property" : "hexadecimalBinary",
                  "sourceInformation" : {
                    "endColumn" : 68,
                    "endLine" : 8946,
                    "sourceId" : "",
                    "startColumn" : 52,
                    "startLine" : 8946
                  }
                } ],
                "sourceInformation" : {
                  "endColumn" : 77,
                  "endLine" : 8946,
                  "sourceId" : "",
                  "startColumn" : 71,
                  "startLine" : 8946
                }
              }, {
                "_type" : "func",
                "function" : "and",
                "parameters" : [ {
                  "_type" : "func",
                  "function" : "isEmpty",
                  "parameters" : [ {
                    "_type" : "property",
                    "parameters" : [ {
                      "_type" : "var",
                      "name" : "this",
                      "sourceInformation" : {
                        "endColumn" : 89,
                        "endLine" : 8946,
                        "sourceId" : "",
                        "startColumn" : 85,
                        "startLine" : 8946
                      }
                    } ],
                    "property" : "base64Binary",
                    "sourceInformation" : {
                      "endColumn" : 102,
                      "endLine" : 8946,
                      "sourceId" : "",
                      "startColumn" : 91,
                      "startLine" : 8946
                    }
                  } ],
                  "sourceInformation" : {
                    "endColumn" : 111,
                    "endLine" : 8946,
                    "sourceId" : "",
                    "startColumn" : 105,
                    "startLine" : 8946
                  }
                }, {
                  "_type" : "func",
                  "function" : "isEmpty",
                  "parameters" : [ {
                    "_type" : "property",
                    "parameters" : [ {
                      "_type" : "var",
                      "name" : "this",
                      "sourceInformation" : {
                        "endColumn" : 122,
                        "endLine" : 8946,
                        "sourceId" : "",
                        "startColumn" : 118,
                        "startLine" : 8946
                      }
                    } ],
                    "property" : "url",
                    "sourceInformation" : {
                      "endColumn" : 126,
                      "endLine" : 8946,
                      "sourceId" : "",
                      "startColumn" : 124,
                      "startLine" : 8946
                    }
                  } ],
                  "sourceInformation" : {
                    "endColumn" : 135,
                    "endLine" : 8946,
                    "sourceId" : "",
                    "startColumn" : 129,
                    "startLine" : 8946
                  }
                } ],
                "sourceInformation" : {
                  "endColumn" : 116,
                  "endLine" : 8946,
                  "sourceId" : "",
                  "startColumn" : 115,
                  "startLine" : 8946
                }
              } ],
              "sourceInformation" : {
                "endColumn" : 82,
                "endLine" : 8946,
                "sourceId" : "",
                "startColumn" : 81,
                "startLine" : 8946
              }
            } ],
            "sourceInformation" : {
              "endColumn" : 43,
              "endLine" : 8946,
              "sourceId" : "",
              "startColumn" : 42,
              "startLine" : 8946
            }
          }, {
            "_type" : "func",
            "function" : "or",
            "parameters" : [ {
              "_type" : "func",
              "function" : "and",
              "parameters" : [ {
                "_type" : "func",
                "function" : "isEmpty",
                "parameters" : [ {
                  "_type" : "property",
                  "parameters" : [ {
                    "_type" : "var",
                    "name" : "this",
                    "sourceInformation" : {
                      "endColumn" : 151,
                      "endLine" : 8946,
                      "sourceId" : "",
                      "startColumn" : 147,
                      "startLine" : 8946
                    }
                  } ],
                  "property" : "string",
                  "sourceInformation" : {
                    "endColumn" : 158,
                    "endLine" : 8946,
                    "sourceId" : "",
                    "startColumn" : 153,
                    "startLine" : 8946
                  }
                } ],
                "sourceInformation" : {
                  "endColumn" : 167,
                  "endLine" : 8946,
                  "sourceId" : "",
                  "startColumn" : 161,
                  "startLine" : 8946
                }
              }, {
                "_type" : "func",
                "function" : "and",
                "parameters" : [ {
                  "_type" : "func",
                  "function" : "isNotEmpty",
                  "parameters" : [ {
                    "_type" : "property",
                    "parameters" : [ {
                      "_type" : "var",
                      "name" : "this",
                      "sourceInformation" : {
                        "endColumn" : 179,
                        "endLine" : 8946,
                        "sourceId" : "",
                        "startColumn" : 175,
                        "startLine" : 8946
                      }
                    } ],
                    "property" : "hexadecimalBinary",
                    "sourceInformation" : {
                      "endColumn" : 197,
                      "endLine" : 8946,
                      "sourceId" : "",
                      "startColumn" : 181,
                      "startLine" : 8946
                    }
                  } ],
                  "sourceInformation" : {
                    "endColumn" : 209,
                    "endLine" : 8946,
                    "sourceId" : "",
                    "startColumn" : 200,
                    "startLine" : 8946
                  }
                }, {
                  "_type" : "func",
                  "function" : "and",
                  "parameters" : [ {
                    "_type" : "func",
                    "function" : "isEmpty",
                    "parameters" : [ {
                      "_type" : "property",
                      "parameters" : [ {
                        "_type" : "var",
                        "name" : "this",
                        "sourceInformation" : {
                          "endColumn" : 221,
                          "endLine" : 8946,
                          "sourceId" : "",
                          "startColumn" : 217,
                          "startLine" : 8946
                        }
                      } ],
                      "property" : "base64Binary",
                      "sourceInformation" : {
                        "endColumn" : 234,
                        "endLine" : 8946,
                        "sourceId" : "",
                        "startColumn" : 223,
                        "startLine" : 8946
                      }
                    } ],
                    "sourceInformation" : {
                      "endColumn" : 243,
                      "endLine" : 8946,
                      "sourceId" : "",
                      "startColumn" : 237,
                      "startLine" : 8946
                    }
                  }, {
                    "_type" : "func",
                    "function" : "isEmpty",
                    "parameters" : [ {
                      "_type" : "property",
                      "parameters" : [ {
                        "_type" : "var",
                        "name" : "this",
                        "sourceInformation" : {
                          "endColumn" : 254,
                          "endLine" : 8946,
                          "sourceId" : "",
                          "startColumn" : 250,
                          "startLine" : 8946
                        }
                      } ],
                      "property" : "url",
                      "sourceInformation" : {
                        "endColumn" : 258,
                        "endLine" : 8946,
                        "sourceId" : "",
                        "startColumn" : 256,
                        "startLine" : 8946
                      }
                    } ],
                    "sourceInformation" : {
                      "endColumn" : 267,
                      "endLine" : 8946,
                      "sourceId" : "",
                      "startColumn" : 261,
                      "startLine" : 8946
                    }
                  } ],
                  "sourceInformation" : {
                    "endColumn" : 248,
                    "endLine" : 8946,
                    "sourceId" : "",
                    "startColumn" : 247,
                    "startLine" : 8946
                  }
                } ],
                "sourceInformation" : {
                  "endColumn" : 214,
                  "endLine" : 8946,
                  "sourceId" : "",
                  "startColumn" : 213,
                  "startLine" : 8946
                }
              } ],
              "sourceInformation" : {
                "endColumn" : 172,
                "endLine" : 8946,
                "sourceId" : "",
                "startColumn" : 171,
                "startLine" : 8946
              }
            }, {
              "_type" : "func",
              "function" : "or",
              "parameters" : [ {
                "_type" : "func",
                "function" : "and",
                "parameters" : [ {
                  "_type" : "func",
                  "function" : "isEmpty",
                  "parameters" : [ {
                    "_type" : "property",
                    "parameters" : [ {
                      "_type" : "var",
                      "name" : "this",
                      "sourceInformation" : {
                        "endColumn" : 283,
                        "endLine" : 8946,
                        "sourceId" : "",
                        "startColumn" : 279,
                        "startLine" : 8946
                      }
                    } ],
                    "property" : "string",
                    "sourceInformation" : {
                      "endColumn" : 290,
                      "endLine" : 8946,
                      "sourceId" : "",
                      "startColumn" : 285,
                      "startLine" : 8946
                    }
                  } ],
                  "sourceInformation" : {
                    "endColumn" : 299,
                    "endLine" : 8946,
                    "sourceId" : "",
                    "startColumn" : 293,
                    "startLine" : 8946
                  }
                }, {
                  "_type" : "func",
                  "function" : "and",
                  "parameters" : [ {
                    "_type" : "func",
                    "function" : "isEmpty",
                    "parameters" : [ {
                      "_type" : "property",
                      "parameters" : [ {
                        "_type" : "var",
                        "name" : "this",
                        "sourceInformation" : {
                          "endColumn" : 311,
                          "endLine" : 8946,
                          "sourceId" : "",
                          "startColumn" : 307,
                          "startLine" : 8946
                        }
                      } ],
                      "property" : "hexadecimalBinary",
                      "sourceInformation" : {
                        "endColumn" : 329,
                        "endLine" : 8946,
                        "sourceId" : "",
                        "startColumn" : 313,
                        "startLine" : 8946
                      }
                    } ],
                    "sourceInformation" : {
                      "endColumn" : 338,
                      "endLine" : 8946,
                      "sourceId" : "",
                      "startColumn" : 332,
                      "startLine" : 8946
                    }
                  }, {
                    "_type" : "func",
                    "function" : "and",
                    "parameters" : [ {
                      "_type" : "func",
                      "function" : "isNotEmpty",
                      "parameters" : [ {
                        "_type" : "property",
                        "parameters" : [ {
                          "_type" : "var",
                          "name" : "this",
                          "sourceInformation" : {
                            "endColumn" : 350,
                            "endLine" : 8946,
                            "sourceId" : "",
                            "startColumn" : 346,
                            "startLine" : 8946
                          }
                        } ],
                        "property" : "base64Binary",
                        "sourceInformation" : {
                          "endColumn" : 363,
                          "endLine" : 8946,
                          "sourceId" : "",
                          "startColumn" : 352,
                          "startLine" : 8946
                        }
                      } ],
                      "sourceInformation" : {
                        "endColumn" : 375,
                        "endLine" : 8946,
                        "sourceId" : "",
                        "startColumn" : 366,
                        "startLine" : 8946
                      }
                    }, {
                      "_type" : "func",
                      "function" : "isEmpty",
                      "parameters" : [ {
                        "_type" : "property",
                        "parameters" : [ {
                          "_type" : "var",
                          "name" : "this",
                          "sourceInformation" : {
                            "endColumn" : 386,
                            "endLine" : 8946,
                            "sourceId" : "",
                            "startColumn" : 382,
                            "startLine" : 8946
                          }
                        } ],
                        "property" : "url",
                        "sourceInformation" : {
                          "endColumn" : 390,
                          "endLine" : 8946,
                          "sourceId" : "",
                          "startColumn" : 388,
                          "startLine" : 8946
                        }
                      } ],
                      "sourceInformation" : {
                        "endColumn" : 399,
                        "endLine" : 8946,
                        "sourceId" : "",
                        "startColumn" : 393,
                        "startLine" : 8946
                      }
                    } ],
                    "sourceInformation" : {
                      "endColumn" : 380,
                      "endLine" : 8946,
                      "sourceId" : "",
                      "startColumn" : 379,
                      "startLine" : 8946
                    }
                  } ],
                  "sourceInformation" : {
                    "endColumn" : 343,
                    "endLine" : 8946,
                    "sourceId" : "",
                    "startColumn" : 342,
                    "startLine" : 8946
                  }
                } ],
                "sourceInformation" : {
                  "endColumn" : 304,
                  "endLine" : 8946,
                  "sourceId" : "",
                  "startColumn" : 303,
                  "startLine" : 8946
                }
              }, {
                "_type" : "func",
                "function" : "and",
                "parameters" : [ {
                  "_type" : "func",
                  "function" : "isEmpty",
                  "parameters" : [ {
                    "_type" : "property",
                    "parameters" : [ {
                      "_type" : "var",
                      "name" : "this",
                      "sourceInformation" : {
                        "endColumn" : 414,
                        "endLine" : 8946,
                        "sourceId" : "",
                        "startColumn" : 410,
                        "startLine" : 8946
                      }
                    } ],
                    "property" : "string",
                    "sourceInformation" : {
                      "endColumn" : 421,
                      "endLine" : 8946,
                      "sourceId" : "",
                      "startColumn" : 416,
                      "startLine" : 8946
                    }
                  } ],
                  "sourceInformation" : {
                    "endColumn" : 430,
                    "endLine" : 8946,
                    "sourceId" : "",
                    "startColumn" : 424,
                    "startLine" : 8946
                  }
                }, {
                  "_type" : "func",
                  "function" : "and",
                  "parameters" : [ {
                    "_type" : "func",
                    "function" : "isEmpty",
                    "parameters" : [ {
                      "_type" : "property",
                      "parameters" : [ {
                        "_type" : "var",
                        "name" : "this",
                        "sourceInformation" : {
                          "endColumn" : 442,
                          "endLine" : 8946,
                          "sourceId" : "",
                          "startColumn" : 438,
                          "startLine" : 8946
                        }
                      } ],
                      "property" : "hexadecimalBinary",
                      "sourceInformation" : {
                        "endColumn" : 460,
                        "endLine" : 8946,
                        "sourceId" : "",
                        "startColumn" : 444,
                        "startLine" : 8946
                      }
                    } ],
                    "sourceInformation" : {
                      "endColumn" : 469,
                      "endLine" : 8946,
                      "sourceId" : "",
                      "startColumn" : 463,
                      "startLine" : 8946
                    }
                  }, {
                    "_type" : "func",
                    "function" : "and",
                    "parameters" : [ {
                      "_type" : "func",
                      "function" : "isEmpty",
                      "parameters" : [ {
                        "_type" : "property",
                        "parameters" : [ {
                          "_type" : "var",
                          "name" : "this",
                          "sourceInformation" : {
                            "endColumn" : 481,
                            "endLine" : 8946,
                            "sourceId" : "",
                            "startColumn" : 477,
                            "startLine" : 8946
                          }
                        } ],
                        "property" : "base64Binary",
                        "sourceInformation" : {
                          "endColumn" : 494,
                          "endLine" : 8946,
                          "sourceId" : "",
                          "startColumn" : 483,
                          "startLine" : 8946
                        }
                      } ],
                      "sourceInformation" : {
                        "endColumn" : 503,
                        "endLine" : 8946,
                        "sourceId" : "",
                        "startColumn" : 497,
                        "startLine" : 8946
                      }
                    }, {
                      "_type" : "func",
                      "function" : "isNotEmpty",
                      "parameters" : [ {
                        "_type" : "property",
                        "parameters" : [ {
                          "_type" : "var",
                          "name" : "this",
                          "sourceInformation" : {
                            "endColumn" : 514,
                            "endLine" : 8946,
                            "sourceId" : "",
                            "startColumn" : 510,
                            "startLine" : 8946
                          }
                        } ],
                        "property" : "url",
                        "sourceInformation" : {
                          "endColumn" : 518,
                          "endLine" : 8946,
                          "sourceId" : "",
                          "startColumn" : 516,
                          "startLine" : 8946
                        }
                      } ],
                      "sourceInformation" : {
                        "endColumn" : 530,
                        "endLine" : 8946,
                        "sourceId" : "",
                        "startColumn" : 521,
                        "startLine" : 8946
                      }
                    } ],
                    "sourceInformation" : {
                      "endColumn" : 508,
                      "endLine" : 8946,
                      "sourceId" : "",
                      "startColumn" : 507,
                      "startLine" : 8946
                    }
                  } ],
                  "sourceInformation" : {
                    "endColumn" : 474,
                    "endLine" : 8946,
                    "sourceId" : "",
                    "startColumn" : 473,
                    "startLine" : 8946
                  }
                } ],
                "sourceInformation" : {
                  "endColumn" : 435,
                  "endLine" : 8946,
                  "sourceId" : "",
                  "startColumn" : 434,
                  "startLine" : 8946
                }
              } ],
              "sourceInformation" : {
                "endColumn" : 407,
                "endLine" : 8946,
                "sourceId" : "",
                "startColumn" : 406,
                "startLine" : 8946
              }
            } ],
            "sourceInformation" : {
              "endColumn" : 275,
              "endLine" : 8946,
              "sourceId" : "",
              "startColumn" : 274,
              "startLine" : 8946
            }
          } ],
          "sourceInformation" : {
            "endColumn" : 143,
            "endLine" : 8946,
            "sourceId" : "",
            "startColumn" : 142,
            "startLine" : 8946
          }
        } ],
        "parameters" : [ ]
      },
      "name" : "c5_choice"
    } ],
    "name" : "Resource",
    "package" : "FpML::model",
    "properties" : [ {
      "multiplicity" : {
        "lowerBound" : 0,
        "upperBound" : 1
      },
      "name" : "resourceId",
      "taggedValues" : [ {
        "tag" : {
          "profile" : "meta::pure::profiles::doc",
          "value" : "doc"
        },
        "value" : "The unique identifier of the resource within the event."
      } ],
      "type" : "FpML::model::ResourceId"
    }, {
      "multiplicity" : {
        "lowerBound" : 0,
        "upperBound" : 1
      },
      "name" : "resourceType",
      "taggedValues" : [ {
        "tag" : {
          "profile" : "meta::pure::profiles::doc",
          "value" : "doc"
        },
        "value" : "A description of the type of the resource, e.g. a confirmation."
      } ],
      "type" : "FpML::model::ResourceType"
    }, {
      "multiplicity" : {
        "lowerBound" : 0,
        "upperBound" : 1
      },
      "name" : "language",
      "taggedValues" : [ {
        "tag" : {
          "profile" : "meta::pure::profiles::doc",
          "value" : "doc"
        },
        "value" : "Indicates the language of the resource, described using the ISO 639-2/T Code."
      } ],
      "type" : "FpML::model::Language"
    }, {
      "multiplicity" : {
        "lowerBound" : 0,
        "upperBound" : 1
      },
      "name" : "sizeInBytes",
      "taggedValues" : [ {
        "tag" : {
          "profile" : "meta::pure::profiles::doc",
          "value" : "doc"
        },
        "value" : "Indicates the size of the resource in bytes. It could be used by the end user to estimate the download time and storage needs."
      } ],
      "type" : "Decimal"
    }, {
      "multiplicity" : {
        "lowerBound" : 0,
        "upperBound" : 1
      },
      "name" : "length",
      "taggedValues" : [ {
        "tag" : {
          "profile" : "meta::pure::profiles::doc",
          "value" : "doc"
        },
        "value" : "Indicates the length of the resource. For example, if the resource were a PDF file, the length would be in pages."
      } ],
      "type" : "FpML::model::ResourceLength"
    }, {
      "multiplicity" : {
        "lowerBound" : 0,
        "upperBound" : 1
      },
      "name" : "mimeType",
      "taggedValues" : [ {
        "tag" : {
          "profile" : "meta::pure::profiles::doc",
          "value" : "doc"
        },
        "value" : "Indicates the type of media used to store the content. mimeType is used to determine the software product(s) that can read the content. MIME Types are described in RFC 2046."
      } ],
      "type" : "FpML::model::MimeType"
    }, {
      "multiplicity" : {
        "lowerBound" : 0,
        "upperBound" : 1
      },
      "name" : "name",
      "taggedValues" : [ {
        "tag" : {
          "profile" : "meta::pure::profiles::doc",
          "value" : "doc"
        },
        "value" : "The name of the resource."
      } ],
      "type" : "String"
    }, {
      "multiplicity" : {
        "lowerBound" : 0,
        "upperBound" : 1
      },
      "name" : "comments",
      "taggedValues" : [ {
        "tag" : {
          "profile" : "meta::pure::profiles::doc",
          "value" : "doc"
        },
        "value" : "Any additional comments that are deemed necessary. For example, which software version is required to open the document? Or, how does this resource relate to the others for this event?"
      } ],
      "type" : "String"
    }, {
      "multiplicity" : {
        "lowerBound" : 0,
        "upperBound" : 1
      },
      "name" : "string",
      "taggedValues" : [ {
        "tag" : {
          "profile" : "meta::pure::profiles::doc",
          "value" : "doc"
        },
        "value" : "Provides extra information as string. In case the extra information is in XML format, a CDATA section must be placed around the source message to prevent its interpretation as XML content."
      } ],
      "type" : "String"
    }, {
      "multiplicity" : {
        "lowerBound" : 0,
        "upperBound" : 1
      },
      "name" : "hexadecimalBinary",
      "taggedValues" : [ {
        "tag" : {
          "profile" : "meta::pure::profiles::doc",
          "value" : "doc"
        },
        "value" : "Provides extra information as binary contents coded in hexadecimal."
      } ],
      "type" : "String"
    }, {
      "multiplicity" : {
        "lowerBound" : 0,
        "upperBound" : 1
      },
      "name" : "base64Binary",
      "taggedValues" : [ {
        "tag" : {
          "profile" : "meta::pure::profiles::doc",
          "value" : "doc"
        },
        "value" : "Provides extra information as binary contents coded in base64."
      } ],
      "type" : "String"
    }, {
      "multiplicity" : {
        "lowerBound" : 0,
        "upperBound" : 1
      },
      "name" : "url",
      "taggedValues" : [ {
        "tag" : {
          "profile" : "meta::pure::profiles::doc",
          "value" : "doc"
        },
        "value" : "Indicates where the resource can be found, as a URL that references the information on a web server accessible to the message recipient."
      } ],
      "type" : "String"
    } ],
    "taggedValues" : [ {
      "tag" : {
        "profile" : "meta::pure::profiles::doc",
        "value" : "doc"
      },
      "value" : "Describes the resource that contains the media representation of a business event (i.e used for stating the Publicly Available Information). For example, can describe a file or a URL that represents the event. This type is an extended version of a type defined by RIXML (www.rixml.org)."
    } ]
  }
}