{
  "classifierPath" : "meta::pure::metamodel::type::Enumeration",
  "content" : {
    "_type" : "Enumeration",
    "name" : "RollConventionEnum",
    "package" : "FpML::model",
    "taggedValues" : [ {
      "tag" : {
        "profile" : "meta::pure::profiles::doc",
        "value" : "doc"
      },
      "value" : "The convention for determining the sequence of calculation period end dates. It is used in conjunction with a specified frequency and the regular period start date of a calculation period, e.g. semi-annual IMM roll dates."
    } ],
    "values" : [ {
      "value" : "EOM"
    }, {
      "value" : "FRN"
    }, {
      "value" : "IMM"
    }, {
      "value" : "IMMCAD"
    }, {
      "value" : "IMMAUD"
    }, {
      "value" : "IMMNZD"
    }, {
      "value" : "SFE"
    }, {
      "value" : "NONE"
    }, {
      "value" : "TBILL"
    }, {
      "value" : "_1"
    }, {
      "value" : "_2"
    }, {
      "value" : "_3"
    }, {
      "value" : "_4"
    }, {
      "value" : "_5"
    }, {
      "value" : "_6"
    }, {
      "value" : "_7"
    }, {
      "value" : "_8"
    }, {
      "value" : "_9"
    }, {
      "value" : "_10"
    }, {
      "value" : "_11"
    }, {
      "value" : "_12"
    }, {
      "value" : "_13"
    }, {
      "value" : "_14"
    }, {
      "value" : "_15"
    }, {
      "value" : "_16"
    }, {
      "value" : "_17"
    }, {
      "value" : "_18"
    }, {
      "value" : "_19"
    }, {
      "value" : "_20"
    }, {
      "value" : "_21"
    }, {
      "value" : "_22"
    }, {
      "value" : "_23"
    }, {
      "value" : "_24"
    }, {
      "value" : "_25"
    }, {
      "value" : "_26"
    }, {
      "value" : "_27"
    }, {
      "value" : "_28"
    }, {
      "value" : "_29"
    }, {
      "value" : "_30"
    }, {
      "value" : "MON"
    }, {
      "value" : "TUE"
    }, {
      "value" : "WED"
    }, {
      "value" : "THU"
    }, {
      "value" : "FRI"
    }, {
      "value" : "SAT"
    }, {
      "value" : "SUN"
    } ]
  }
}