{
  "classifierPath" : "meta::pure::metamodel::type::Class",
  "content" : {
    "_type" : "class",
    "constraints" : [ {
      "functionDefinition" : {
        "_type" : "lambda",
        "body" : [ {
          "_type" : "func",
          "function" : "forAll",
          "parameters" : [ {
            "_type" : "property",
            "parameters" : [ {
              "_type" : "var",
              "name" : "this",
              "sourceInformation" : {
                "endColumn" : 18,
                "endLine" : 9161,
                "sourceId" : "",
                "startColumn" : 14,
                "startLine" : 9161
              }
            } ],
            "property" : "settlementRateOptionScheme",
            "sourceInformation" : {
              "endColumn" : 45,
              "endLine" : 9161,
              "sourceId" : "",
              "startColumn" : 20,
              "startLine" : 9161
            }
          }, {
            "_type" : "lambda",
            "body" : [ {
              "_type" : "func",
              "function" : "greaterThanEqual",
              "parameters" : [ {
                "_type" : "func",
                "function" : "length",
                "parameters" : [ {
                  "_type" : "var",
                  "name" : "x",
                  "sourceInformation" : {
                    "endColumn" : 69,
                    "endLine" : 9161,
                    "sourceId" : "",
                    "startColumn" : 68,
                    "startLine" : 9161
                  }
                } ],
                "sourceInformation" : {
                  "endColumn" : 77,
                  "endLine" : 9161,
                  "sourceId" : "",
                  "startColumn" : 72,
                  "startLine" : 9161
                }
              }, {
                "_type" : "integer",
                "multiplicity" : {
                  "lowerBound" : 1,
                  "upperBound" : 1
                },
                "sourceInformation" : {
                  "endColumn" : 84,
                  "endLine" : 9161,
                  "sourceId" : "",
                  "startColumn" : 84,
                  "startLine" : 9161
                },
                "values" : [ 1 ]
              } ],
              "sourceInformation" : {
                "endColumn" : 84,
                "endLine" : 9161,
                "sourceId" : "",
                "startColumn" : 81,
                "startLine" : 9161
              }
            } ],
            "parameters" : [ {
              "_type" : "var",
              "class" : "String",
              "multiplicity" : {
                "lowerBound" : 1,
                "upperBound" : 1
              },
              "name" : "x",
              "sourceInformation" : {
                "endColumn" : 63,
                "endLine" : 9161,
                "sourceId" : "",
                "startColumn" : 58,
                "startLine" : 9161
              }
            } ],
            "sourceInformation" : {
              "endColumn" : 84,
              "endLine" : 9161,
              "sourceId" : "",
              "startColumn" : 67,
              "startLine" : 9161
            }
          } ],
          "sourceInformation" : {
            "endColumn" : 53,
            "endLine" : 9161,
            "sourceId" : "",
            "startColumn" : 48,
            "startLine" : 9161
          }
        } ],
        "parameters" : [ ]
      },
      "name" : "c1_length"
    }, {
      "functionDefinition" : {
        "_type" : "lambda",
        "body" : [ {
          "_type" : "func",
          "function" : "lessThanEqual",
          "parameters" : [ {
            "_type" : "func",
            "function" : "length",
            "parameters" : [ {
              "_type" : "property",
              "parameters" : [ {
                "_type" : "var",
                "name" : "this",
                "sourceInformation" : {
                  "endColumn" : 18,
                  "endLine" : 9162,
                  "sourceId" : "",
                  "startColumn" : 14,
                  "startLine" : 9162
                }
              } ],
              "property" : "value",
              "sourceInformation" : {
                "endColumn" : 24,
                "endLine" : 9162,
                "sourceId" : "",
                "startColumn" : 20,
                "startLine" : 9162
              }
            } ],
            "sourceInformation" : {
              "endColumn" : 32,
              "endLine" : 9162,
              "sourceId" : "",
              "startColumn" : 27,
              "startLine" : 9162
            }
          }, {
            "_type" : "integer",
            "multiplicity" : {
              "lowerBound" : 1,
              "upperBound" : 1
            },
            "sourceInformation" : {
              "endColumn" : 41,
              "endLine" : 9162,
              "sourceId" : "",
              "startColumn" : 39,
              "startLine" : 9162
            },
            "values" : [ 255 ]
          } ],
          "sourceInformation" : {
            "endColumn" : 41,
            "endLine" : 9162,
            "sourceId" : "",
            "startColumn" : 36,
            "startLine" : 9162
          }
        } ],
        "parameters" : [ ]
      },
      "name" : "c2_length"
    } ],
    "name" : "SettlementRateOption",
    "package" : "FpML::model",
    "properties" : [ {
      "multiplicity" : {
        "lowerBound" : 0,
        "upperBound" : 1
      },
      "name" : "settlementRateOptionScheme",
      "type" : "String"
    }, {
      "multiplicity" : {
        "lowerBound" : 1,
        "upperBound" : 1
      },
      "name" : "value",
      "type" : "String"
    } ],
    "taggedValues" : [ {
      "tag" : {
        "profile" : "meta::pure::profiles::doc",
        "value" : "doc"
      },
      "value" : "A type defining the settlement rate options through a scheme reflecting the terms of the Annex A to the 1998 FX and Currency Option Definitions."
    } ]
  }
}