{
  "classifierPath" : "meta::pure::metamodel::type::Enumeration",
  "content" : {
    "_type" : "Enumeration",
    "name" : "TelephoneTypeEnum",
    "package" : "FpML::model",
    "taggedValues" : [ {
      "tag" : {
        "profile" : "meta::pure::profiles::doc",
        "value" : "doc"
      },
      "value" : "The type of telephone number used to reach a contact."
    } ],
    "values" : [ {
      "value" : "Work"
    }, {
      "value" : "Mobile"
    }, {
      "value" : "Fax"
    }, {
      "value" : "Personal"
    } ]
  }
}