{
  "classifierPath" : "meta::pure::metamodel::type::Class",
  "content" : {
    "_type" : "class",
    "name" : "Tranche",
    "package" : "FpML::model",
    "properties" : [ {
      "multiplicity" : {
        "lowerBound" : 0,
        "upperBound" : 1
      },
      "name" : "attachmentPoint",
      "taggedValues" : [ {
        "tag" : {
          "profile" : "meta::pure::profiles::doc",
          "value" : "doc"
        },
        "value" : "Lower bound percentage of the loss that the Tranche can endure, expressed as a decimal. An attachment point of 5% would be represented as 0.05. The difference between Attachment and Exhaustion points is call the width of the Tranche. A schema facet to constraint the value between 0 to 1 will be introduced in FpML 4.3."
      } ],
      "type" : "Decimal"
    }, {
      "multiplicity" : {
        "lowerBound" : 0,
        "upperBound" : 1
      },
      "name" : "exhaustionPoint",
      "taggedValues" : [ {
        "tag" : {
          "profile" : "meta::pure::profiles::doc",
          "value" : "doc"
        },
        "value" : "Upper bound percentage of the loss that the Tranche can endure, expressed as a decimal. An exhaustion point of 5% would be represented as 0.05. The difference between Attachment and Exhaustion points is call the width of the Tranche. A schema facet to constraint the value between 0 to 1 will be introduced in FpML 4.3."
      } ],
      "type" : "Decimal"
    }, {
      "multiplicity" : {
        "lowerBound" : 0,
        "upperBound" : 1
      },
      "name" : "incurredRecoveryApplicable",
      "taggedValues" : [ {
        "tag" : {
          "profile" : "meta::pure::profiles::doc",
          "value" : "doc"
        },
        "value" : "Outstanding Swap Notional Amount is defined at any time on any day, as the greater of: (a) Zero; If Incurred Recovery Amount Applicable: (b) The Original Swap Notional Amount minus the sum of all Incurred Loss Amounts and all Incurred Recovery Amounts (if any) determined under this Confirmation at or prior to such time.Incurred Recovery Amount not populated: (b) The Original Swap Notional Amount minus the sum of all Incurred Loss Amounts determined under this Confirmation at or prior to such time."
      } ],
      "type" : "Boolean"
    } ],
    "taggedValues" : [ {
      "tag" : {
        "profile" : "meta::pure::profiles::doc",
        "value" : "doc"
      },
      "value" : "This type represents a CDS Tranche."
    } ]
  }
}